﻿TXT2
SinsArchiveVersion 194
ParticleSimulation
	HasInfiniteLifeTime TRUE
	TotalLifeTime 10.000000
	NumEmitters 4
	EmitterType "Point"
	EmitterContents
		Name "Warhead"
		Enabled TRUE
		EmitRate 1.000000
		HasInfiniteEmitCount FALSE
		MaxEmitCount 1
		hasEmitIntervals FALSE
		emitIntervalRunDuration 0.000000
		emitIntervalWaitDuration 0.000000
		ParticleLifeTime 0.500000
		ParticleMinStartLinearSpeed 0.000000
		ParticleMaxStartLinearSpeed 0.000000
		ParticleMinStartAngularSpeed 0.000000
		ParticleMaxStartAngularSpeed 0.000000
		ParticleMinStartRotation 0.000000
		ParticleMaxStartRotation 0.000000
		ParticleStartMass 1.000000
		ParticleStartColor ffffffff
		ParticleWidth 10.000000
		ParticleHeight 10.000000
		MeshName ""
		Position [ 0.000000 0.000000 0.000000 ]
		Orientation
			 [ 1.000000 0.000000 0.000000 ]
			 [ 0.000000 1.000000 0.000000 ]
			 [ 0.000000 0.000000 1.000000 ]
		RotateAboutForward 0.000000
		RotateAboutUp 0.000000
		RotateAboutCross 0.000000
		StartTime 0.000000
		HasInfiniteLifeTime TRUE
		TotalLifeTime 0.000000
		BillboardAnchor 0
		ParticleFacing 0
		PipelineEffectID "Particle_Additive.fx"
		AreParticlesAttached TRUE
		numTextures 2
		textureName "C:\Users\Mattias\Desktop\DOTR Particle Effects\Textures\flare2.dds"
		textureName ""
		textureAnimationName ""
		textureAnimationSpawnType "RandomFrames"
		textureAnimationOnParticleFPS 0.000000
		ParticlesRotate FALSE
		MeshParticleRotationAxisType 0
		MeshParticleRotationAxis [ 0.000000 0.100000 0.000000 ]
		RotationDirectionType 0
		AngleVariance 3.141593
	EmitterType "Point"
	EmitterContents
		Name "Shockwave"
		Enabled TRUE
		EmitRate 1.000000
		HasInfiniteEmitCount FALSE
		MaxEmitCount 1
		hasEmitIntervals FALSE
		emitIntervalRunDuration 0.000000
		emitIntervalWaitDuration 0.000000
		ParticleLifeTime 0.500000
		ParticleMinStartLinearSpeed 0.000000
		ParticleMaxStartLinearSpeed 0.000000
		ParticleMinStartAngularSpeed 0.000000
		ParticleMaxStartAngularSpeed 0.000000
		ParticleMinStartRotation 0.000000
		ParticleMaxStartRotation 0.000000
		ParticleStartMass 1.000000
		ParticleStartColor ffc0c0ff
		ParticleWidth 1.000000
		ParticleHeight 1.000000
		MeshName ""
		Position [ 0.000000 0.000000 0.000000 ]
		Orientation
			 [ 1.000000 0.000000 0.000000 ]
			 [ 0.000000 1.000000 0.000000 ]
			 [ 0.000000 0.000000 1.000000 ]
		RotateAboutForward 0.000000
		RotateAboutUp 0.000000
		RotateAboutCross 0.000000
		StartTime 0.500000
		HasInfiniteLifeTime TRUE
		TotalLifeTime 0.000000
		BillboardAnchor 0
		ParticleFacing 0
		PipelineEffectID "Particle_Additive.fx"
		AreParticlesAttached TRUE
		numTextures 2
		textureName "C:\Users\Mattias\Desktop\DOTR Particle Effects\Textures\flare.dds"
		textureName ""
		textureAnimationName ""
		textureAnimationSpawnType "RandomFrames"
		textureAnimationOnParticleFPS 0.000000
		ParticlesRotate FALSE
		MeshParticleRotationAxisType 0
		MeshParticleRotationAxis [ 0.000000 0.100000 0.000000 ]
		RotationDirectionType 0
		AngleVariance 3.141593
	EmitterType "Point"
	EmitterContents
		Name "(new) Point-1"
		Enabled TRUE
		EmitRate 1.000000
		HasInfiniteEmitCount FALSE
		MaxEmitCount 1
		hasEmitIntervals FALSE
		emitIntervalRunDuration 0.000000
		emitIntervalWaitDuration 0.000000
		ParticleLifeTime 99.000000
		ParticleMinStartLinearSpeed 0.000000
		ParticleMaxStartLinearSpeed 0.000000
		ParticleMinStartAngularSpeed 1.221730
		ParticleMaxStartAngularSpeed 1.221730
		ParticleMinStartRotation 0.000000
		ParticleMaxStartRotation 0.000000
		ParticleStartMass 1.000000
		ParticleStartColor ffffffff
		ParticleWidth 1.000000
		ParticleHeight 1.000000
		MeshName ""
		Position [ 0.000000 0.000000 0.000000 ]
		Orientation
			 [ 1.000000 0.000000 0.000000 ]
			 [ 0.000000 1.000000 0.000000 ]
			 [ 0.000000 0.000000 1.000000 ]
		RotateAboutForward 0.000000
		RotateAboutUp 0.000000
		RotateAboutCross 0.000000
		StartTime 0.500000
		HasInfiniteLifeTime TRUE
		TotalLifeTime 0.000000
		BillboardAnchor 0
		ParticleFacing 2
		PipelineEffectID "Particle_Additive.fx"
		AreParticlesAttached TRUE
		numTextures 2
		textureName "C:\Users\Mattias\Desktop\Ability_Merc_SuppresionNet.dds"
		textureName ""
		textureAnimationName ""
		textureAnimationSpawnType "RandomFrames"
		textureAnimationOnParticleFPS 0.000000
		ParticlesRotate TRUE
		MeshParticleRotationAxisType 0
		MeshParticleRotationAxis [ 0.000000 0.100000 0.000000 ]
		RotationDirectionType 0
		AngleVariance 0.000000
	EmitterType "Point"
	EmitterContents
		Name "(copy) (new) Point-1-1"
		Enabled TRUE
		EmitRate 1.000000
		HasInfiniteEmitCount FALSE
		MaxEmitCount 1
		hasEmitIntervals FALSE
		emitIntervalRunDuration 0.000000
		emitIntervalWaitDuration 0.000000
		ParticleLifeTime 99.000000
		ParticleMinStartLinearSpeed 0.000000
		ParticleMaxStartLinearSpeed 0.000000
		ParticleMinStartAngularSpeed 1.221730
		ParticleMaxStartAngularSpeed 1.221730
		ParticleMinStartRotation 0.000000
		ParticleMaxStartRotation 0.000000
		ParticleStartMass 1.000000
		ParticleStartColor ffffffff
		ParticleWidth 1.000000
		ParticleHeight 1.000000
		MeshName ""
		Position [ 0.000000 0.000000 0.000000 ]
		Orientation
			 [ 1.000000 0.000000 0.000000 ]
			 [ 0.000000 -1.000000 -0.000000 ]
			 [ 0.000000 0.000000 -1.000000 ]
		RotateAboutForward 180.000000
		RotateAboutUp 0.000000
		RotateAboutCross 0.000000
		StartTime 0.500000
		HasInfiniteLifeTime TRUE
		TotalLifeTime 0.000000
		BillboardAnchor 0
		ParticleFacing 2
		PipelineEffectID "Particle_Additive.fx"
		AreParticlesAttached TRUE
		numTextures 2
		textureName "C:\Users\Mattias\Documents\My Games\Ironclad Games\Sins of a Solar Empire Rebellion\Mods-Rebellion v1.85 Dev\DOTR-Rebuild\Textures\Ability_Merc_SuppresionNet.dds"
		textureName ""
		textureAnimationName ""
		textureAnimationSpawnType "RandomFrames"
		textureAnimationOnParticleFPS 0.000000
		ParticlesRotate TRUE
		MeshParticleRotationAxisType 0
		MeshParticleRotationAxis [ 0.000000 0.100000 0.000000 ]
		RotationDirectionType 1
		AngleVariance 0.000000
	NumAffectors 5
	AffectorType "SizeOscillator"
	AffectorContents
		Name "(new) SizeOscillator-1"
		Enabled TRUE
		StartTime 0.500000
		HasInfiniteLifeTime TRUE
		TotalLifeTime 0.000000
		UseYoungParticleAffectThreshold FALSE
		YoungParticleAffectThreshold 0.000000
		UseOldParticleAffectThreshold FALSE
		OldParticleAffectThreshold 0.000000
		AffectAttachedParticles TRUE
		numAttachedEmitters 0
		TransitionPeriod 1.000000
		BeginSizeX 6.000000
		BeginSizeY 6.000000
		EndSizeX 6.000000
		EndSizeY 6.000000
	AffectorType "LinearInflate"
	AffectorContents
		Name "(new) LinearInflate-2"
		Enabled TRUE
		StartTime 0.000000
		HasInfiniteLifeTime TRUE
		TotalLifeTime 0.000000
		UseYoungParticleAffectThreshold FALSE
		YoungParticleAffectThreshold 0.000000
		UseOldParticleAffectThreshold FALSE
		OldParticleAffectThreshold 0.000000
		AffectAttachedParticles TRUE
		numAttachedEmitters 1
		attachedEmitterName "Shockwave"
		WidthInflateRate 700.000000
		HeightInflateRate 700.000000
	AffectorType "Fade"
	AffectorContents
		Name "(new) Fade-1"
		Enabled TRUE
		StartTime 0.000000
		HasInfiniteLifeTime TRUE
		TotalLifeTime 0.000000
		UseYoungParticleAffectThreshold FALSE
		YoungParticleAffectThreshold 0.000000
		UseOldParticleAffectThreshold FALSE
		OldParticleAffectThreshold 0.000000
		AffectAttachedParticles TRUE
		numAttachedEmitters 1
		attachedEmitterName "Shockwave"
		DoFadeOut TRUE
		FadeOutTime 1.000000
		DoFadeIn FALSE
		FadeInTime 1.000000
	AffectorType "SizeOscillator"
	AffectorContents
		Name "(new) SizeOscillator-2"
		Enabled TRUE
		StartTime 0.500000
		HasInfiniteLifeTime FALSE
		TotalLifeTime 2.000000
		UseYoungParticleAffectThreshold FALSE
		YoungParticleAffectThreshold 0.000000
		UseOldParticleAffectThreshold FALSE
		OldParticleAffectThreshold 0.000000
		AffectAttachedParticles TRUE
		numAttachedEmitters 2
		attachedEmitterName "(new) Point-1"
		attachedEmitterName "(copy) (new) Point-1-1"
		TransitionPeriod 2.000000
		BeginSizeX 1.000000
		BeginSizeY 1.000000
		EndSizeX 130.000000
		EndSizeY 130.000000
	AffectorType "ColorOscillator"
	AffectorContents
		Name "(new) ColorOscillator-1"
		Enabled TRUE
		StartTime 0.000000
		HasInfiniteLifeTime TRUE
		TotalLifeTime 0.000000
		UseYoungParticleAffectThreshold FALSE
		YoungParticleAffectThreshold 0.000000
		UseOldParticleAffectThreshold FALSE
		OldParticleAffectThreshold 0.000000
		AffectAttachedParticles TRUE
		numAttachedEmitters 2
		attachedEmitterName "(copy) (new) Point-1-1"
		attachedEmitterName "(new) Point-1"
		TransitionPeriod 1.000000
		StartColor ffc0ffff
		StartAlpha 1.000000
		EndColor ffc0c0ff
		EndAlpha 1.000000
	length 0.000000
