﻿TXT
ParticleSimulation
	HasInfiniteLifeTime TRUE
	TotalLifeTime 10.000000
	NumEmitters 4
	EmitterType "Point"
	EmitterContents
		Name "Snow"
		Enabled TRUE
		EmitRate 65.000000
		HasInfiniteEmitCount TRUE
		MaxEmitCount 0
		hasEmitIntervals FALSE
		emitIntervalRunDuration 0.000000
		emitIntervalWaitDuration 0.000000
		ParticleLifeTime 2.000000
		ParticleMinStartLinearSpeed 20.000000
		ParticleMaxStartLinearSpeed 100.000000
		ParticleMinStartAngularSpeed 0.000000
		ParticleMaxStartAngularSpeed 0.000000
		ParticleMinStartRotation 0.000000
		ParticleMaxStartRotation 6.283185
		ParticleStartMass 1.000000
		ParticleStartColor ffa848ff
		ParticleWidth 20.000000
		ParticleHeight 20.000000
		MeshName ""
		Position [ 0.000000 0.000000 250.000000 ]
		Orientation
			 [ 1.000000 0.000000 0.000000 ]
			 [ 0.000000 1.000000 0.000000 ]
			 [ 0.000000 0.000000 1.000000 ]
		RotateAboutForward 0.000000
		RotateAboutUp 0.000000
		RotateAboutCross 0.000000
		StartTime 0.000000
		HasInfiniteLifeTime TRUE
		TotalLifeTime 0.000000
		BillboardAnchor 0
		ParticleFacing 0
		PipelineEffectID "Particle_Additive.fx"
		AreParticlesAttached TRUE
		numTextures 2
		textureName "sparkles.tga"
		textureName ""
		textureAnimationName ""
		textureAnimationSpawnType "RandomFrames"
		textureAnimationOnParticleFPS 0.000000
		ParticlesRotate TRUE
		MeshParticleRotationAxisType 0
		MeshParticleRotationAxis [ 0.000000 0.100000 0.000000 ]
		RotationDirectionType 0
		AngleVariance 0.349066
	EmitterType "Ring"
	EmitterContents
		Name "lines"
		Enabled TRUE
		EmitRate 30.000000
		HasInfiniteEmitCount TRUE
		MaxEmitCount 1
		hasEmitIntervals FALSE
		emitIntervalRunDuration 0.000000
		emitIntervalWaitDuration 0.000000
		ParticleLifeTime 2.000000
		ParticleMinStartLinearSpeed 100.000000
		ParticleMaxStartLinearSpeed 200.000000
		ParticleMinStartAngularSpeed 0.000000
		ParticleMaxStartAngularSpeed 0.000000
		ParticleMinStartRotation 0.000000
		ParticleMaxStartRotation 0.000000
		ParticleStartMass 5.000000
		ParticleStartColor ffa848ff
		ParticleWidth 75.000000
		ParticleHeight 500.000000
		MeshName ""
		Position [ 0.000000 0.000000 87.500000 ]
		Orientation
			 [ 1.000000 0.000000 0.000000 ]
			 [ 0.000000 1.000000 0.000000 ]
			 [ 0.000000 0.000000 1.000000 ]
		RotateAboutForward 0.000000
		RotateAboutUp 0.000000
		RotateAboutCross 0.000000
		StartTime 0.000000
		HasInfiniteLifeTime TRUE
		TotalLifeTime 0.000000
		BillboardAnchor 0
		ParticleFacing 1
		PipelineEffectID "Particle_Additive.fx"
		AreParticlesAttached TRUE
		numTextures 2
		textureName "hyperspacelines.tga"
		textureName ""
		textureAnimationName ""
		textureAnimationSpawnType "RandomFrames"
		textureAnimationOnParticleFPS 0.000000
		ParticlesRotate FALSE
		MeshParticleRotationAxisType 0
		MeshParticleRotationAxis [ 0.000000 0.100000 0.000000 ]
		RotationDirectionType 0
		RingRadiusXMin 70.000000
		RingRadiusXMax 75.000000
		RingRadiusYMin 70.000000
		RingRadiusYMax 75.000000
		ParticleMaxStartSpeedTangential 0.000000
		ParticleMaxStartSpeedRingNormal -1500.000000
		ScaleStartSpeedsByRadius TRUE
		SpawnAngleStart 0.000000
		SpawnAngleStop 6.283185
		minSpawnHeight 0.000000
		maxSpawnHeight 0.000000
		spawnDirectionIsParallelToPlane TRUE
		isSpawnAngleRandom TRUE
		nonRandomSpawnLoopEmittedParticleCount 0
	EmitterType "Point"
	EmitterContents
		Name "inside"
		Enabled TRUE
		EmitRate 4.000000
		HasInfiniteEmitCount TRUE
		MaxEmitCount 1
		hasEmitIntervals FALSE
		emitIntervalRunDuration 0.000000
		emitIntervalWaitDuration 0.000000
		ParticleLifeTime 5.000000
		ParticleMinStartLinearSpeed 0.000000
		ParticleMaxStartLinearSpeed 0.000000
		ParticleMinStartAngularSpeed 0.000000
		ParticleMaxStartAngularSpeed 0.000000
		ParticleMinStartRotation 0.000000
		ParticleMaxStartRotation 6.283185
		ParticleStartMass 1.000000
		ParticleStartColor ffa848ff
		ParticleWidth 0.000000
		ParticleHeight 0.000000
		MeshName ""
		Position [ 0.000000 0.000000 300.000000 ]
		Orientation
			 [ 1.000000 0.000000 0.000000 ]
			 [ 0.000000 -1.000000 -0.000000 ]
			 [ 0.000000 0.000000 -1.000000 ]
		RotateAboutForward 180.000000
		RotateAboutUp 0.000000
		RotateAboutCross 0.000000
		StartTime 0.000000
		HasInfiniteLifeTime TRUE
		TotalLifeTime 0.000000
		BillboardAnchor 0
		ParticleFacing 2
		PipelineEffectID "Particle_Additive.fx"
		AreParticlesAttached TRUE
		numTextures 2
		textureName "phasegate.tga"
		textureName ""
		textureAnimationName ""
		textureAnimationSpawnType "RandomFrames"
		textureAnimationOnParticleFPS 0.000000
		ParticlesRotate TRUE
		MeshParticleRotationAxisType 0
		MeshParticleRotationAxis [ 0.000000 0.100000 0.000000 ]
		RotationDirectionType 0
		AngleVariance 0.000000
	EmitterType "Point"
	EmitterContents
		Name "(copy) inside-1"
		Enabled TRUE
		EmitRate 4.000000
		HasInfiniteEmitCount TRUE
		MaxEmitCount 1
		hasEmitIntervals FALSE
		emitIntervalRunDuration 0.000000
		emitIntervalWaitDuration 0.000000
		ParticleLifeTime 5.000000
		ParticleMinStartLinearSpeed 0.000000
		ParticleMaxStartLinearSpeed 0.000000
		ParticleMinStartAngularSpeed 0.000000
		ParticleMaxStartAngularSpeed 0.000000
		ParticleMinStartRotation 0.000000
		ParticleMaxStartRotation 6.283185
		ParticleStartMass 1.000000
		ParticleStartColor ffa848ff
		ParticleWidth 0.000000
		ParticleHeight 0.000000
		MeshName ""
		Position [ 0.000000 0.000000 300.000000 ]
		Orientation
			 [ 1.000000 0.000000 0.000000 ]
			 [ 0.000000 1.000000 0.000000 ]
			 [ 0.000000 0.000000 1.000000 ]
		RotateAboutForward 0.000000
		RotateAboutUp 0.000000
		RotateAboutCross 0.000000
		StartTime 0.000000
		HasInfiniteLifeTime TRUE
		TotalLifeTime 0.000000
		BillboardAnchor 0
		ParticleFacing 2
		PipelineEffectID "Particle_Additive.fx"
		AreParticlesAttached TRUE
		numTextures 2
		textureName "phasegate.tga"
		textureName ""
		textureAnimationName ""
		textureAnimationSpawnType "RandomFrames"
		textureAnimationOnParticleFPS 0.000000
		ParticlesRotate TRUE
		MeshParticleRotationAxisType 0
		MeshParticleRotationAxis [ 0.000000 0.100000 0.000000 ]
		RotationDirectionType 0
		AngleVariance 0.000000
	NumAffectors 8
	AffectorType "LinearForceInDirection"
	AffectorContents
		Name "SnowBackPull"
		Enabled TRUE
		StartTime 0.000000
		HasInfiniteLifeTime TRUE
		TotalLifeTime 0.000000
		UseYoungParticleAffectThreshold FALSE
		YoungParticleAffectThreshold 0.000000
		UseOldParticleAffectThreshold TRUE
		OldParticleAffectThreshold 0.250000
		AffectAttachedParticles TRUE
		numAttachedEmitters 4
		attachedEmitterName "Snow"
		attachedEmitterName "lines"
		attachedEmitterName "inside"
		attachedEmitterName "(copy) inside-1"
		MinForce 1.000000
		MaxForce 10000.000000
		Direction [ 0.000000 0.000000 -1.000000 ]
	AffectorType "Fade"
	AffectorContents
		Name "Fade"
		Enabled TRUE
		StartTime 0.000000
		HasInfiniteLifeTime TRUE
		TotalLifeTime 0.000000
		UseYoungParticleAffectThreshold FALSE
		YoungParticleAffectThreshold 0.000000
		UseOldParticleAffectThreshold FALSE
		OldParticleAffectThreshold 0.000000
		AffectAttachedParticles TRUE
		numAttachedEmitters 1
		attachedEmitterName "Snow"
		DoFadeOut TRUE
		FadeOutTime 0.450000
		DoFadeIn TRUE
		FadeInTime 0.500000
	AffectorType "RotateAboutAxis"
	AffectorContents
		Name "SnowRotate"
		Enabled TRUE
		StartTime 0.000000
		HasInfiniteLifeTime TRUE
		TotalLifeTime 0.000000
		UseYoungParticleAffectThreshold FALSE
		YoungParticleAffectThreshold 0.000000
		UseOldParticleAffectThreshold FALSE
		OldParticleAffectThreshold 0.000000
		AffectAttachedParticles TRUE
		numAttachedEmitters 1
		attachedEmitterName "Snow"
		AngularVelocity 6.000000
		Radius 2000.000000
		AxisOfRotation [ 0.000000 0.000000 1.000000 ]
		AxisOrigin [ 0.000000 0.000000 700.000000 ]
	AffectorType "LinearForceInDirection"
	AffectorContents
		Name "SnowBackPull"
		Enabled TRUE
		StartTime 0.000000
		HasInfiniteLifeTime TRUE
		TotalLifeTime 0.000000
		UseYoungParticleAffectThreshold TRUE
		YoungParticleAffectThreshold 3.000000
		UseOldParticleAffectThreshold TRUE
		OldParticleAffectThreshold 0.750000
		AffectAttachedParticles TRUE
		numAttachedEmitters 2
		attachedEmitterName "Snow"
		attachedEmitterName "lines"
		MinForce 1.000000
		MaxForce 100000.000000
		Direction [ 0.000000 0.000000 -1.000000 ]
	AffectorType "LinearForceToPoint"
	AffectorContents
		Name "Repulsor"
		Enabled TRUE
		StartTime 0.000000
		HasInfiniteLifeTime TRUE
		TotalLifeTime 0.000000
		UseYoungParticleAffectThreshold TRUE
		YoungParticleAffectThreshold 1.000000
		UseOldParticleAffectThreshold FALSE
		OldParticleAffectThreshold 0.000000
		AffectAttachedParticles TRUE
		numAttachedEmitters 2
		attachedEmitterName "Snow"
		attachedEmitterName "lines"
		MinForce -40000.000000
		MaxForce -40000.000000
		Point [ 0.000000 0.000000 1010.000000 ]
	AffectorType "LinearInflate"
	AffectorContents
		Name "inside grow"
		Enabled TRUE
		StartTime 0.000000
		HasInfiniteLifeTime TRUE
		TotalLifeTime 0.000000
		UseYoungParticleAffectThreshold FALSE
		YoungParticleAffectThreshold 0.000000
		UseOldParticleAffectThreshold FALSE
		OldParticleAffectThreshold 0.000000
		AffectAttachedParticles TRUE
		numAttachedEmitters 2
		attachedEmitterName "inside"
		attachedEmitterName "(copy) inside-1"
		WidthInflateRate 200.000000
		HeightInflateRate 200.000000
	AffectorType "Fade"
	AffectorContents
		Name "inside fade"
		Enabled TRUE
		StartTime 0.000000
		HasInfiniteLifeTime TRUE
		TotalLifeTime 0.000000
		UseYoungParticleAffectThreshold FALSE
		YoungParticleAffectThreshold 0.000000
		UseOldParticleAffectThreshold FALSE
		OldParticleAffectThreshold 0.000000
		AffectAttachedParticles TRUE
		numAttachedEmitters 2
		attachedEmitterName "inside"
		attachedEmitterName "(copy) inside-1"
		DoFadeOut TRUE
		FadeOutTime 4.000000
		DoFadeIn TRUE
		FadeInTime 1.000000
	AffectorType "Fade"
	AffectorContents
		Name "(new) Fade-1"
		Enabled TRUE
		StartTime 0.000000
		HasInfiniteLifeTime TRUE
		TotalLifeTime 0.000000
		UseYoungParticleAffectThreshold FALSE
		YoungParticleAffectThreshold 0.000000
		UseOldParticleAffectThreshold FALSE
		OldParticleAffectThreshold 0.000000
		AffectAttachedParticles TRUE
		numAttachedEmitters 1
		attachedEmitterName "lines"
		DoFadeOut TRUE
		FadeOutTime 1.000000
		DoFadeIn TRUE
		FadeInTime 0.500000
	length 0.000000
