﻿TXT
ParticleSimulation
	HasInfiniteLifeTime TRUE
	TotalLifeTime 10.000000
	NumEmitters 15
	EmitterType "Ring"
	EmitterContents
		Name "lines"
		Enabled TRUE
		EmitRate 15.000000
		HasInfiniteEmitCount TRUE
		MaxEmitCount 1
		hasEmitIntervals FALSE
		emitIntervalRunDuration 0.000000
		emitIntervalWaitDuration 0.000000
		ParticleLifeTime 1.500000
		ParticleMinStartLinearSpeed 50.000000
		ParticleMaxStartLinearSpeed 50.000000
		ParticleMinStartAngularSpeed 0.000000
		ParticleMaxStartAngularSpeed 0.000000
		ParticleMinStartRotation 0.000000
		ParticleMaxStartRotation 0.000000
		ParticleStartMass 5.000000
		ParticleStartColor ffba41d3
		ParticleWidth 75.000000
		ParticleHeight 1000.000000
		MeshName ""
		Position [ 0.000000 0.000000 37.500000 ]
		Orientation
			 [ 1.000000 0.000000 0.000000 ]
			 [ 0.000000 1.000000 0.000000 ]
			 [ 0.000000 0.000000 1.000000 ]
		RotateAboutForward 0.000000
		RotateAboutUp 0.000000
		RotateAboutCross 0.000000
		StartTime 0.000000
		HasInfiniteLifeTime TRUE
		TotalLifeTime 0.000000
		BillboardAnchor 0
		ParticleFacing 1
		PipelineEffectID "Particle_Additive.fx"
		AreParticlesAttached TRUE
		numTextures 2
		textureName "firecraigelectrical.dds"
		textureName ""
		textureAnimationName ""
		textureAnimationSpawnType "RandomFrames"
		textureAnimationOnParticleFPS 0.000000
		ParticlesRotate FALSE
		MeshParticleRotationAxisType 0
		MeshParticleRotationAxis [ 0.000000 0.100000 0.000000 ]
		RotationDirectionType 0
		RingRadiusXMin 250.000000
		RingRadiusXMax 250.000000
		RingRadiusYMin 250.000000
		RingRadiusYMax 250.000000
		ParticleMaxStartSpeedTangential 0.000000
		ParticleMaxStartSpeedRingNormal -1000.000000
		ScaleStartSpeedsByRadius TRUE
		SpawnAngleStart 0.000000
		SpawnAngleStop 6.283185
		minSpawnHeight 0.000000
		maxSpawnHeight 0.000000
		spawnDirectionIsParallelToPlane TRUE
		isSpawnAngleRandom TRUE
		nonRandomSpawnLoopEmittedParticleCount 0
	EmitterType "Ring"
	EmitterContents
		Name "lightning"
		Enabled TRUE
		EmitRate 6.000000
		HasInfiniteEmitCount TRUE
		MaxEmitCount 1
		hasEmitIntervals FALSE
		emitIntervalRunDuration 0.000000
		emitIntervalWaitDuration 0.000000
		ParticleLifeTime 2.000000
		ParticleMinStartLinearSpeed 50.000000
		ParticleMaxStartLinearSpeed 50.000000
		ParticleMinStartAngularSpeed 0.000000
		ParticleMaxStartAngularSpeed 0.000000
		ParticleMinStartRotation 0.000000
		ParticleMaxStartRotation 3.141593
		ParticleStartMass 5.000000
		ParticleStartColor ff7559f7
		ParticleWidth 125.000000
		ParticleHeight 250.000000
		MeshName ""
		Position [ 0.000000 0.000000 300.000000 ]
		Orientation
			 [ 1.000000 0.000000 0.000000 ]
			 [ 0.000000 1.000000 0.000000 ]
			 [ 0.000000 0.000000 1.000000 ]
		RotateAboutForward 0.000000
		RotateAboutUp 0.000000
		RotateAboutCross 0.000000
		StartTime 0.000000
		HasInfiniteLifeTime TRUE
		TotalLifeTime 0.000000
		BillboardAnchor 0
		ParticleFacing 1
		PipelineEffectID "Particle_Additive.fx"
		AreParticlesAttached TRUE
		numTextures 2
		textureName "Kay_lightningsphere.tga"
		textureName ""
		textureAnimationName ""
		textureAnimationSpawnType "RandomFrames"
		textureAnimationOnParticleFPS 0.000000
		ParticlesRotate FALSE
		MeshParticleRotationAxisType 0
		MeshParticleRotationAxis [ 0.000000 0.100000 0.000000 ]
		RotationDirectionType 2
		RingRadiusXMin 200.000000
		RingRadiusXMax 250.000000
		RingRadiusYMin 200.000000
		RingRadiusYMax 250.000000
		ParticleMaxStartSpeedTangential 0.000000
		ParticleMaxStartSpeedRingNormal -1000.000000
		ScaleStartSpeedsByRadius TRUE
		SpawnAngleStart 0.000000
		SpawnAngleStop 6.283185
		minSpawnHeight 0.000000
		maxSpawnHeight 0.000000
		spawnDirectionIsParallelToPlane TRUE
		isSpawnAngleRandom TRUE
		nonRandomSpawnLoopEmittedParticleCount 0
	EmitterType "Ring"
	EmitterContents
		Name "(copy) (copy) lines-1-1"
		Enabled TRUE
		EmitRate 10.000000
		HasInfiniteEmitCount TRUE
		MaxEmitCount 1
		hasEmitIntervals FALSE
		emitIntervalRunDuration 0.000000
		emitIntervalWaitDuration 0.000000
		ParticleLifeTime 1.500000
		ParticleMinStartLinearSpeed 50.000000
		ParticleMaxStartLinearSpeed 50.000000
		ParticleMinStartAngularSpeed 0.000000
		ParticleMaxStartAngularSpeed 0.000000
		ParticleMinStartRotation 0.000000
		ParticleMaxStartRotation 0.000000
		ParticleStartMass 5.000000
		ParticleStartColor ff7b68ee
		ParticleWidth 75.000000
		ParticleHeight 250.000000
		MeshName ""
		Position [ 0.000000 0.000000 250.000000 ]
		Orientation
			 [ 1.000000 0.000000 0.000000 ]
			 [ 0.000000 1.000000 0.000000 ]
			 [ 0.000000 0.000000 1.000000 ]
		RotateAboutForward 0.000000
		RotateAboutUp 0.000000
		RotateAboutCross 0.000000
		StartTime 0.000000
		HasInfiniteLifeTime TRUE
		TotalLifeTime 0.000000
		BillboardAnchor 0
		ParticleFacing 1
		PipelineEffectID "Particle_Additive.fx"
		AreParticlesAttached TRUE
		numTextures 2
		textureName "firecraigelectrical.dds"
		textureName ""
		textureAnimationName ""
		textureAnimationSpawnType "RandomFrames"
		textureAnimationOnParticleFPS 0.000000
		ParticlesRotate TRUE
		MeshParticleRotationAxisType 0
		MeshParticleRotationAxis [ 0.000000 0.100000 0.000000 ]
		RotationDirectionType 2
		RingRadiusXMin 200.000000
		RingRadiusXMax 250.000000
		RingRadiusYMin 200.000000
		RingRadiusYMax 250.000000
		ParticleMaxStartSpeedTangential 0.000000
		ParticleMaxStartSpeedRingNormal -1000.000000
		ScaleStartSpeedsByRadius TRUE
		SpawnAngleStart 0.000000
		SpawnAngleStop 6.283185
		minSpawnHeight 0.000000
		maxSpawnHeight 0.000000
		spawnDirectionIsParallelToPlane TRUE
		isSpawnAngleRandom TRUE
		nonRandomSpawnLoopEmittedParticleCount 0
	EmitterType "Ring"
	EmitterContents
		Name "stuff"
		Enabled TRUE
		EmitRate 15.000000
		HasInfiniteEmitCount TRUE
		MaxEmitCount 1
		hasEmitIntervals FALSE
		emitIntervalRunDuration 0.000000
		emitIntervalWaitDuration 0.000000
		ParticleLifeTime 1.500000
		ParticleMinStartLinearSpeed 50.000000
		ParticleMaxStartLinearSpeed 50.000000
		ParticleMinStartAngularSpeed 0.000000
		ParticleMaxStartAngularSpeed 0.000000
		ParticleMinStartRotation 0.000000
		ParticleMaxStartRotation 0.000000
		ParticleStartMass 5.000000
		ParticleStartColor ffc0c0ff
		ParticleWidth 75.000000
		ParticleHeight 1000.000000
		MeshName ""
		Position [ 0.000000 0.000000 30.000000 ]
		Orientation
			 [ 1.000000 0.000000 0.000000 ]
			 [ 0.000000 1.000000 0.000000 ]
			 [ 0.000000 0.000000 1.000000 ]
		RotateAboutForward 0.000000
		RotateAboutUp 0.000000
		RotateAboutCross 0.000000
		StartTime 0.000000
		HasInfiniteLifeTime TRUE
		TotalLifeTime 0.000000
		BillboardAnchor 0
		ParticleFacing 1
		PipelineEffectID "Particle_Additive.fx"
		AreParticlesAttached TRUE
		numTextures 2
		textureName "Kay-ParticleDust.tga"
		textureName ""
		textureAnimationName ""
		textureAnimationSpawnType "RandomFrames"
		textureAnimationOnParticleFPS 0.000000
		ParticlesRotate FALSE
		MeshParticleRotationAxisType 0
		MeshParticleRotationAxis [ 0.000000 0.100000 0.000000 ]
		RotationDirectionType 0
		RingRadiusXMin 150.000000
		RingRadiusXMax 200.000000
		RingRadiusYMin 150.000000
		RingRadiusYMax 200.000000
		ParticleMaxStartSpeedTangential 0.000000
		ParticleMaxStartSpeedRingNormal -1000.000000
		ScaleStartSpeedsByRadius TRUE
		SpawnAngleStart 0.000000
		SpawnAngleStop 6.283185
		minSpawnHeight 0.000000
		maxSpawnHeight 0.000000
		spawnDirectionIsParallelToPlane TRUE
		isSpawnAngleRandom TRUE
		nonRandomSpawnLoopEmittedParticleCount 0
	EmitterType "Ring"
	EmitterContents
		Name "(copy) stuff-1"
		Enabled TRUE
		EmitRate 15.000000
		HasInfiniteEmitCount TRUE
		MaxEmitCount 1
		hasEmitIntervals FALSE
		emitIntervalRunDuration 0.000000
		emitIntervalWaitDuration 0.000000
		ParticleLifeTime 1.500000
		ParticleMinStartLinearSpeed 50.000000
		ParticleMaxStartLinearSpeed 50.000000
		ParticleMinStartAngularSpeed 0.000000
		ParticleMaxStartAngularSpeed 0.000000
		ParticleMinStartRotation 0.000000
		ParticleMaxStartRotation 0.000000
		ParticleStartMass 5.000000
		ParticleStartColor ff7b68ee
		ParticleWidth 75.000000
		ParticleHeight 1000.000000
		MeshName ""
		Position [ 0.000000 0.000000 75.000000 ]
		Orientation
			 [ 1.000000 0.000000 0.000000 ]
			 [ 0.000000 1.000000 0.000000 ]
			 [ 0.000000 0.000000 1.000000 ]
		RotateAboutForward 0.000000
		RotateAboutUp 0.000000
		RotateAboutCross 0.000000
		StartTime 0.000000
		HasInfiniteLifeTime TRUE
		TotalLifeTime 0.000000
		BillboardAnchor 0
		ParticleFacing 1
		PipelineEffectID "Particle_Additive.fx"
		AreParticlesAttached TRUE
		numTextures 2
		textureName "firecraigelectrical.dds"
		textureName ""
		textureAnimationName ""
		textureAnimationSpawnType "RandomFrames"
		textureAnimationOnParticleFPS 0.000000
		ParticlesRotate FALSE
		MeshParticleRotationAxisType 0
		MeshParticleRotationAxis [ 0.000000 0.100000 0.000000 ]
		RotationDirectionType 0
		RingRadiusXMin 250.000000
		RingRadiusXMax 250.000000
		RingRadiusYMin 250.000000
		RingRadiusYMax 250.000000
		ParticleMaxStartSpeedTangential 0.000000
		ParticleMaxStartSpeedRingNormal -1000.000000
		ScaleStartSpeedsByRadius TRUE
		SpawnAngleStart 0.000000
		SpawnAngleStop 6.283185
		minSpawnHeight 0.000000
		maxSpawnHeight 0.000000
		spawnDirectionIsParallelToPlane TRUE
		isSpawnAngleRandom TRUE
		nonRandomSpawnLoopEmittedParticleCount 0
	EmitterType "Point"
	EmitterContents
		Name "tip"
		Enabled TRUE
		EmitRate 15.000000
		HasInfiniteEmitCount TRUE
		MaxEmitCount 0
		hasEmitIntervals FALSE
		emitIntervalRunDuration 0.000000
		emitIntervalWaitDuration 0.000000
		ParticleLifeTime 0.800000
		ParticleMinStartLinearSpeed -5000.000000
		ParticleMaxStartLinearSpeed -5000.000000
		ParticleMinStartAngularSpeed 0.000000
		ParticleMaxStartAngularSpeed 0.000000
		ParticleMinStartRotation 0.000000
		ParticleMaxStartRotation 6.283185
		ParticleStartMass 1.000000
		ParticleStartColor ffba41d3
		ParticleWidth 175.000000
		ParticleHeight 0.000000
		MeshName ""
		Position [ 0.000000 0.000000 575.000000 ]
		Orientation
			 [ 1.000000 0.000000 0.000000 ]
			 [ 0.000000 1.000000 0.000000 ]
			 [ 0.000000 0.000000 1.000000 ]
		RotateAboutForward 0.000000
		RotateAboutUp 0.000000
		RotateAboutCross 0.000000
		StartTime 0.000000
		HasInfiniteLifeTime TRUE
		TotalLifeTime 0.000000
		BillboardAnchor 0
		ParticleFacing 1
		PipelineEffectID "Particle_Additive.fx"
		AreParticlesAttached TRUE
		numTextures 2
		textureName "Kay_lightningsphere2.tga"
		textureName ""
		textureAnimationName ""
		textureAnimationSpawnType "RandomFrames"
		textureAnimationOnParticleFPS 0.000000
		ParticlesRotate TRUE
		MeshParticleRotationAxisType 0
		MeshParticleRotationAxis [ 0.000000 0.100000 0.000000 ]
		RotationDirectionType 2
		AngleVariance 0.000000
	EmitterType "Ring"
	EmitterContents
		Name "fontlightning"
		Enabled TRUE
		EmitRate 2.000000
		HasInfiniteEmitCount TRUE
		MaxEmitCount 1
		hasEmitIntervals FALSE
		emitIntervalRunDuration 0.000000
		emitIntervalWaitDuration 0.000000
		ParticleLifeTime 3.000000
		ParticleMinStartLinearSpeed 0.000000
		ParticleMaxStartLinearSpeed 100.000000
		ParticleMinStartAngularSpeed 0.000000
		ParticleMaxStartAngularSpeed 0.000000
		ParticleMinStartRotation 0.000000
		ParticleMaxStartRotation 0.000000
		ParticleStartMass 5.000000
		ParticleStartColor ff7b68ee
		ParticleWidth 75.000000
		ParticleHeight 500.000000
		MeshName ""
		Position [ 0.000000 0.000000 287.500000 ]
		Orientation
			 [ 1.000000 0.000000 0.000000 ]
			 [ 0.000000 1.000000 0.000000 ]
			 [ 0.000000 0.000000 1.000000 ]
		RotateAboutForward 0.000000
		RotateAboutUp 0.000000
		RotateAboutCross 0.000000
		StartTime 0.000000
		HasInfiniteLifeTime TRUE
		TotalLifeTime 0.000000
		BillboardAnchor 0
		ParticleFacing 1
		PipelineEffectID "Particle_Additive.fx"
		AreParticlesAttached TRUE
		numTextures 2
		textureName "Kay_lightningsphere2.tga"
		textureName ""
		textureAnimationName ""
		textureAnimationSpawnType "RandomFrames"
		textureAnimationOnParticleFPS 0.000000
		ParticlesRotate FALSE
		MeshParticleRotationAxisType 0
		MeshParticleRotationAxis [ 0.000000 0.100000 0.000000 ]
		RotationDirectionType 0
		RingRadiusXMin 50.000000
		RingRadiusXMax 70.000000
		RingRadiusYMin 50.000000
		RingRadiusYMax 70.000000
		ParticleMaxStartSpeedTangential 0.000000
		ParticleMaxStartSpeedRingNormal -1000.000000
		ScaleStartSpeedsByRadius TRUE
		SpawnAngleStart 0.000000
		SpawnAngleStop 6.283185
		minSpawnHeight 0.000000
		maxSpawnHeight 0.000000
		spawnDirectionIsParallelToPlane TRUE
		isSpawnAngleRandom TRUE
		nonRandomSpawnLoopEmittedParticleCount 0
	EmitterType "Ring"
	EmitterContents
		Name "lightning2"
		Enabled TRUE
		EmitRate 6.000000
		HasInfiniteEmitCount TRUE
		MaxEmitCount 1
		hasEmitIntervals FALSE
		emitIntervalRunDuration 0.000000
		emitIntervalWaitDuration 0.000000
		ParticleLifeTime 2.000000
		ParticleMinStartLinearSpeed 50.000000
		ParticleMaxStartLinearSpeed 50.000000
		ParticleMinStartAngularSpeed 0.000000
		ParticleMaxStartAngularSpeed 0.000000
		ParticleMinStartRotation 0.000000
		ParticleMaxStartRotation 3.141593
		ParticleStartMass 5.000000
		ParticleStartColor ff7559f7
		ParticleWidth 125.000000
		ParticleHeight 275.000000
		MeshName ""
		Position [ 0.000000 0.000000 300.000000 ]
		Orientation
			 [ 1.000000 0.000000 0.000000 ]
			 [ 0.000000 1.000000 0.000000 ]
			 [ 0.000000 0.000000 1.000000 ]
		RotateAboutForward 0.000000
		RotateAboutUp 0.000000
		RotateAboutCross 0.000000
		StartTime 0.000000
		HasInfiniteLifeTime TRUE
		TotalLifeTime 0.000000
		BillboardAnchor 0
		ParticleFacing 1
		PipelineEffectID "Particle_Additive.fx"
		AreParticlesAttached TRUE
		numTextures 2
		textureName "Kay_lightningsphere2.tga"
		textureName ""
		textureAnimationName ""
		textureAnimationSpawnType "RandomFrames"
		textureAnimationOnParticleFPS 0.000000
		ParticlesRotate FALSE
		MeshParticleRotationAxisType 0
		MeshParticleRotationAxis [ 0.000000 0.100000 0.000000 ]
		RotationDirectionType 2
		RingRadiusXMin 200.000000
		RingRadiusXMax 250.000000
		RingRadiusYMin 200.000000
		RingRadiusYMax 250.000000
		ParticleMaxStartSpeedTangential 0.000000
		ParticleMaxStartSpeedRingNormal -1000.000000
		ScaleStartSpeedsByRadius TRUE
		SpawnAngleStart 0.000000
		SpawnAngleStop 6.283185
		minSpawnHeight 0.000000
		maxSpawnHeight 0.000000
		spawnDirectionIsParallelToPlane TRUE
		isSpawnAngleRandom TRUE
		nonRandomSpawnLoopEmittedParticleCount 0
	EmitterType "Ring"
	EmitterContents
		Name "lightning3"
		Enabled TRUE
		EmitRate 6.000000
		HasInfiniteEmitCount TRUE
		MaxEmitCount 1
		hasEmitIntervals FALSE
		emitIntervalRunDuration 0.000000
		emitIntervalWaitDuration 0.000000
		ParticleLifeTime 2.000000
		ParticleMinStartLinearSpeed 50.000000
		ParticleMaxStartLinearSpeed 50.000000
		ParticleMinStartAngularSpeed 0.000000
		ParticleMaxStartAngularSpeed 0.000000
		ParticleMinStartRotation 0.000000
		ParticleMaxStartRotation 3.141593
		ParticleStartMass 5.000000
		ParticleStartColor ffba41d3
		ParticleWidth 125.000000
		ParticleHeight 250.000000
		MeshName ""
		Position [ 0.000000 0.000000 300.000000 ]
		Orientation
			 [ 1.000000 0.000000 0.000000 ]
			 [ 0.000000 1.000000 0.000000 ]
			 [ 0.000000 0.000000 1.000000 ]
		RotateAboutForward 0.000000
		RotateAboutUp 0.000000
		RotateAboutCross 0.000000
		StartTime 0.000000
		HasInfiniteLifeTime TRUE
		TotalLifeTime 0.000000
		BillboardAnchor 0
		ParticleFacing 1
		PipelineEffectID "Particle_Additive.fx"
		AreParticlesAttached TRUE
		numTextures 2
		textureName "Kay_lightningsphere3.tga"
		textureName ""
		textureAnimationName ""
		textureAnimationSpawnType "RandomFrames"
		textureAnimationOnParticleFPS 0.000000
		ParticlesRotate FALSE
		MeshParticleRotationAxisType 0
		MeshParticleRotationAxis [ 0.000000 0.100000 0.000000 ]
		RotationDirectionType 2
		RingRadiusXMin 200.000000
		RingRadiusXMax 250.000000
		RingRadiusYMin 200.000000
		RingRadiusYMax 250.000000
		ParticleMaxStartSpeedTangential 0.000000
		ParticleMaxStartSpeedRingNormal -1000.000000
		ScaleStartSpeedsByRadius TRUE
		SpawnAngleStart 0.000000
		SpawnAngleStop 6.283185
		minSpawnHeight 0.000000
		maxSpawnHeight 0.000000
		spawnDirectionIsParallelToPlane TRUE
		isSpawnAngleRandom TRUE
		nonRandomSpawnLoopEmittedParticleCount 0
	EmitterType "Ring"
	EmitterContents
		Name "lightning4"
		Enabled TRUE
		EmitRate 6.000000
		HasInfiniteEmitCount TRUE
		MaxEmitCount 1
		hasEmitIntervals FALSE
		emitIntervalRunDuration 0.000000
		emitIntervalWaitDuration 0.000000
		ParticleLifeTime 2.000000
		ParticleMinStartLinearSpeed 50.000000
		ParticleMaxStartLinearSpeed 50.000000
		ParticleMinStartAngularSpeed 0.000000
		ParticleMaxStartAngularSpeed 0.000000
		ParticleMinStartRotation 0.000000
		ParticleMaxStartRotation 3.141593
		ParticleStartMass 5.000000
		ParticleStartColor ffab35e3
		ParticleWidth 125.000000
		ParticleHeight 325.000000
		MeshName ""
		Position [ 0.000000 0.000000 300.000000 ]
		Orientation
			 [ 1.000000 0.000000 0.000000 ]
			 [ 0.000000 1.000000 0.000000 ]
			 [ 0.000000 0.000000 1.000000 ]
		RotateAboutForward 0.000000
		RotateAboutUp 0.000000
		RotateAboutCross 0.000000
		StartTime 0.000000
		HasInfiniteLifeTime TRUE
		TotalLifeTime 0.000000
		BillboardAnchor 0
		ParticleFacing 1
		PipelineEffectID "Particle_Additive.fx"
		AreParticlesAttached TRUE
		numTextures 2
		textureName "Kay_lightningsphere.tga"
		textureName ""
		textureAnimationName ""
		textureAnimationSpawnType "RandomFrames"
		textureAnimationOnParticleFPS 0.000000
		ParticlesRotate FALSE
		MeshParticleRotationAxisType 0
		MeshParticleRotationAxis [ 0.000000 0.100000 0.000000 ]
		RotationDirectionType 2
		RingRadiusXMin 150.000000
		RingRadiusXMax 200.000000
		RingRadiusYMin 150.000000
		RingRadiusYMax 200.000000
		ParticleMaxStartSpeedTangential 0.000000
		ParticleMaxStartSpeedRingNormal -1000.000000
		ScaleStartSpeedsByRadius TRUE
		SpawnAngleStart 0.000000
		SpawnAngleStop 6.283185
		minSpawnHeight 0.000000
		maxSpawnHeight 0.000000
		spawnDirectionIsParallelToPlane TRUE
		isSpawnAngleRandom TRUE
		nonRandomSpawnLoopEmittedParticleCount 0
	EmitterType "Point"
	EmitterContents
		Name "tip2"
		Enabled TRUE
		EmitRate 20.000000
		HasInfiniteEmitCount TRUE
		MaxEmitCount 0
		hasEmitIntervals FALSE
		emitIntervalRunDuration 0.000000
		emitIntervalWaitDuration 0.000000
		ParticleLifeTime 0.600000
		ParticleMinStartLinearSpeed -4000.000000
		ParticleMaxStartLinearSpeed -4000.000000
		ParticleMinStartAngularSpeed 0.000000
		ParticleMaxStartAngularSpeed 0.000000
		ParticleMinStartRotation 0.000000
		ParticleMaxStartRotation 6.283185
		ParticleStartMass 1.000000
		ParticleStartColor ff7559f7
		ParticleWidth 175.000000
		ParticleHeight 0.000000
		MeshName ""
		Position [ 0.000000 0.000000 500.000000 ]
		Orientation
			 [ 1.000000 0.000000 0.000000 ]
			 [ 0.000000 1.000000 0.000000 ]
			 [ 0.000000 0.000000 1.000000 ]
		RotateAboutForward 0.000000
		RotateAboutUp 0.000000
		RotateAboutCross 0.000000
		StartTime 0.000000
		HasInfiniteLifeTime TRUE
		TotalLifeTime 0.000000
		BillboardAnchor 0
		ParticleFacing 1
		PipelineEffectID "Particle_Additive.fx"
		AreParticlesAttached TRUE
		numTextures 2
		textureName "Kay_lightningsphere.tga"
		textureName ""
		textureAnimationName ""
		textureAnimationSpawnType "RandomFrames"
		textureAnimationOnParticleFPS 0.000000
		ParticlesRotate TRUE
		MeshParticleRotationAxisType 0
		MeshParticleRotationAxis [ 0.000000 0.100000 0.000000 ]
		RotationDirectionType 2
		AngleVariance 0.000000
	EmitterType "Ring"
	EmitterContents
		Name "(copy) fontlightning-1"
		Enabled TRUE
		EmitRate 2.000000
		HasInfiniteEmitCount TRUE
		MaxEmitCount 1
		hasEmitIntervals FALSE
		emitIntervalRunDuration 0.000000
		emitIntervalWaitDuration 0.000000
		ParticleLifeTime 3.000000
		ParticleMinStartLinearSpeed 0.000000
		ParticleMaxStartLinearSpeed 50.000000
		ParticleMinStartAngularSpeed 0.000000
		ParticleMaxStartAngularSpeed 0.000000
		ParticleMinStartRotation 0.000000
		ParticleMaxStartRotation 0.000000
		ParticleStartMass 5.000000
		ParticleStartColor ff7559f7
		ParticleWidth 62.500000
		ParticleHeight 500.000000
		MeshName ""
		Position [ 0.000000 0.000000 287.500000 ]
		Orientation
			 [ 1.000000 0.000000 0.000000 ]
			 [ 0.000000 1.000000 0.000000 ]
			 [ 0.000000 0.000000 1.000000 ]
		RotateAboutForward 0.000000
		RotateAboutUp 0.000000
		RotateAboutCross 0.000000
		StartTime 0.000000
		HasInfiniteLifeTime TRUE
		TotalLifeTime 0.000000
		BillboardAnchor 0
		ParticleFacing 1
		PipelineEffectID "Particle_Additive.fx"
		AreParticlesAttached TRUE
		numTextures 2
		textureName "Kay_lightningsphere3.tga"
		textureName ""
		textureAnimationName ""
		textureAnimationSpawnType "RandomFrames"
		textureAnimationOnParticleFPS 0.000000
		ParticlesRotate FALSE
		MeshParticleRotationAxisType 0
		MeshParticleRotationAxis [ 0.000000 0.100000 0.000000 ]
		RotationDirectionType 0
		RingRadiusXMin 100.000000
		RingRadiusXMax 150.000000
		RingRadiusYMin 100.000000
		RingRadiusYMax 150.000000
		ParticleMaxStartSpeedTangential 0.000000
		ParticleMaxStartSpeedRingNormal -1000.000000
		ScaleStartSpeedsByRadius TRUE
		SpawnAngleStart 0.000000
		SpawnAngleStop 6.283185
		minSpawnHeight 0.000000
		maxSpawnHeight 0.000000
		spawnDirectionIsParallelToPlane TRUE
		isSpawnAngleRandom TRUE
		nonRandomSpawnLoopEmittedParticleCount 0
	EmitterType "Point"
	EmitterContents
		Name "tip3"
		Enabled TRUE
		EmitRate 10.000000
		HasInfiniteEmitCount TRUE
		MaxEmitCount 0
		hasEmitIntervals FALSE
		emitIntervalRunDuration 0.000000
		emitIntervalWaitDuration 0.000000
		ParticleLifeTime 0.600000
		ParticleMinStartLinearSpeed -4000.000000
		ParticleMaxStartLinearSpeed -4000.000000
		ParticleMinStartAngularSpeed 0.000000
		ParticleMaxStartAngularSpeed 0.000000
		ParticleMinStartRotation 0.000000
		ParticleMaxStartRotation 6.283185
		ParticleStartMass 1.000000
		ParticleStartColor ffc0ffc0
		ParticleWidth 100.000000
		ParticleHeight 12.500000
		MeshName ""
		Position [ 0.000000 0.000000 500.000000 ]
		Orientation
			 [ 1.000000 0.000000 0.000000 ]
			 [ 0.000000 1.000000 0.000000 ]
			 [ 0.000000 0.000000 1.000000 ]
		RotateAboutForward 0.000000
		RotateAboutUp 0.000000
		RotateAboutCross 0.000000
		StartTime 0.000000
		HasInfiniteLifeTime TRUE
		TotalLifeTime 0.000000
		BillboardAnchor 0
		ParticleFacing 1
		PipelineEffectID "Particle_Additive.fx"
		AreParticlesAttached TRUE
		numTextures 2
		textureName "Kay_lightningsphere3.tga"
		textureName ""
		textureAnimationName ""
		textureAnimationSpawnType "RandomFrames"
		textureAnimationOnParticleFPS 0.000000
		ParticlesRotate TRUE
		MeshParticleRotationAxisType 0
		MeshParticleRotationAxis [ 0.000000 0.100000 0.000000 ]
		RotationDirectionType 2
		AngleVariance 0.000000
	EmitterType "Point"
	EmitterContents
		Name "tip4"
		Enabled TRUE
		EmitRate 12.000000
		HasInfiniteEmitCount TRUE
		MaxEmitCount 0
		hasEmitIntervals FALSE
		emitIntervalRunDuration 0.000000
		emitIntervalWaitDuration 0.000000
		ParticleLifeTime 0.550000
		ParticleMinStartLinearSpeed -4000.000000
		ParticleMaxStartLinearSpeed -4000.000000
		ParticleMinStartAngularSpeed 0.000000
		ParticleMaxStartAngularSpeed 0.000000
		ParticleMinStartRotation 0.000000
		ParticleMaxStartRotation 6.283185
		ParticleStartMass 1.000000
		ParticleStartColor ff7559f7
		ParticleWidth 125.000000
		ParticleHeight 50.000000
		MeshName ""
		Position [ 0.000000 0.000000 500.000000 ]
		Orientation
			 [ 1.000000 0.000000 0.000000 ]
			 [ 0.000000 1.000000 0.000000 ]
			 [ 0.000000 0.000000 1.000000 ]
		RotateAboutForward 0.000000
		RotateAboutUp 0.000000
		RotateAboutCross 0.000000
		StartTime 0.000000
		HasInfiniteLifeTime TRUE
		TotalLifeTime 0.000000
		BillboardAnchor 0
		ParticleFacing 1
		PipelineEffectID "Particle_Additive.fx"
		AreParticlesAttached TRUE
		numTextures 2
		textureName "firecraigelectrical.dds"
		textureName ""
		textureAnimationName ""
		textureAnimationSpawnType "RandomFrames"
		textureAnimationOnParticleFPS 0.000000
		ParticlesRotate TRUE
		MeshParticleRotationAxisType 0
		MeshParticleRotationAxis [ 0.000000 0.100000 0.000000 ]
		RotationDirectionType 2
		AngleVariance 0.000000
	EmitterType "Ring"
	EmitterContents
		Name "(copy) stuff-2"
		Enabled TRUE
		EmitRate 15.000000
		HasInfiniteEmitCount TRUE
		MaxEmitCount 1
		hasEmitIntervals FALSE
		emitIntervalRunDuration 0.000000
		emitIntervalWaitDuration 0.000000
		ParticleLifeTime 1.500000
		ParticleMinStartLinearSpeed 50.000000
		ParticleMaxStartLinearSpeed 50.000000
		ParticleMinStartAngularSpeed 0.000000
		ParticleMaxStartAngularSpeed 0.000000
		ParticleMinStartRotation 0.000000
		ParticleMaxStartRotation 0.000000
		ParticleStartMass 5.000000
		ParticleStartColor ffba41d3
		ParticleWidth 150.000000
		ParticleHeight 1000.000000
		MeshName ""
		Position [ 0.000000 0.000000 30.000000 ]
		Orientation
			 [ 1.000000 0.000000 0.000000 ]
			 [ 0.000000 1.000000 0.000000 ]
			 [ 0.000000 0.000000 1.000000 ]
		RotateAboutForward 0.000000
		RotateAboutUp 0.000000
		RotateAboutCross 0.000000
		StartTime 0.000000
		HasInfiniteLifeTime TRUE
		TotalLifeTime 0.000000
		BillboardAnchor 0
		ParticleFacing 1
		PipelineEffectID "Particle_Additive.fx"
		AreParticlesAttached TRUE
		numTextures 2
		textureName "Kay_lightningsphere3.tga"
		textureName ""
		textureAnimationName ""
		textureAnimationSpawnType "RandomFrames"
		textureAnimationOnParticleFPS 0.000000
		ParticlesRotate FALSE
		MeshParticleRotationAxisType 0
		MeshParticleRotationAxis [ 0.000000 0.100000 0.000000 ]
		RotationDirectionType 0
		RingRadiusXMin 150.000000
		RingRadiusXMax 200.000000
		RingRadiusYMin 150.000000
		RingRadiusYMax 200.000000
		ParticleMaxStartSpeedTangential 0.000000
		ParticleMaxStartSpeedRingNormal -1000.000000
		ScaleStartSpeedsByRadius TRUE
		SpawnAngleStart 0.000000
		SpawnAngleStop 6.283185
		minSpawnHeight 0.000000
		maxSpawnHeight 0.000000
		spawnDirectionIsParallelToPlane TRUE
		isSpawnAngleRandom TRUE
		nonRandomSpawnLoopEmittedParticleCount 0
	NumAffectors 12
	AffectorType "Fade"
	AffectorContents
		Name "Fade"
		Enabled TRUE
		StartTime 0.000000
		HasInfiniteLifeTime TRUE
		TotalLifeTime 0.000000
		UseYoungParticleAffectThreshold FALSE
		YoungParticleAffectThreshold 0.000000
		UseOldParticleAffectThreshold FALSE
		OldParticleAffectThreshold 0.000000
		AffectAttachedParticles TRUE
		numAttachedEmitters 6
		attachedEmitterName "lines"
		attachedEmitterName "(copy) (copy) lines-1-1"
		attachedEmitterName "lightning"
		attachedEmitterName "lightning2"
		attachedEmitterName "lightning3"
		attachedEmitterName "lightning4"
		DoFadeOut TRUE
		FadeOutTime 2.000000
		DoFadeIn TRUE
		FadeInTime 0.500000
	AffectorType "LinearForceInDirection"
	AffectorContents
		Name "SnowBackPull"
		Enabled TRUE
		StartTime 0.000000
		HasInfiniteLifeTime TRUE
		TotalLifeTime 0.000000
		UseYoungParticleAffectThreshold TRUE
		YoungParticleAffectThreshold 3.000000
		UseOldParticleAffectThreshold TRUE
		OldParticleAffectThreshold 0.100000
		AffectAttachedParticles TRUE
		numAttachedEmitters 9
		attachedEmitterName "lines"
		attachedEmitterName "(copy) (copy) lines-1-1"
		attachedEmitterName "stuff"
		attachedEmitterName "(copy) stuff-1"
		attachedEmitterName "lightning"
		attachedEmitterName "lightning2"
		attachedEmitterName "lightning3"
		attachedEmitterName "lightning4"
		attachedEmitterName "(copy) stuff-2"
		MinForce 1.000000
		MaxForce 800000.000000
		Direction [ 0.000000 0.000000 -1.000000 ]
	AffectorType "LinearForceToPoint"
	AffectorContents
		Name "Repulsor"
		Enabled TRUE
		StartTime 0.000000
		HasInfiniteLifeTime TRUE
		TotalLifeTime 0.000000
		UseYoungParticleAffectThreshold TRUE
		YoungParticleAffectThreshold 1.000000
		UseOldParticleAffectThreshold FALSE
		OldParticleAffectThreshold 0.000000
		AffectAttachedParticles TRUE
		numAttachedEmitters 8
		attachedEmitterName "(copy) (copy) lines-1-1"
		attachedEmitterName "stuff"
		attachedEmitterName "(copy) stuff-1"
		attachedEmitterName "lightning"
		attachedEmitterName "lightning2"
		attachedEmitterName "lightning3"
		attachedEmitterName "lightning4"
		attachedEmitterName "(copy) stuff-2"
		MinForce -40000.000000
		MaxForce -40000.000000
		Point [ 0.000000 0.000000 1010.000000 ]
	AffectorType "LinearInflate"
	AffectorContents
		Name "(new) LinearInflate-1"
		Enabled TRUE
		StartTime 0.000000
		HasInfiniteLifeTime TRUE
		TotalLifeTime 0.000000
		UseYoungParticleAffectThreshold FALSE
		YoungParticleAffectThreshold 0.000000
		UseOldParticleAffectThreshold FALSE
		OldParticleAffectThreshold 0.000000
		AffectAttachedParticles TRUE
		numAttachedEmitters 7
		attachedEmitterName "(copy) (copy) lines-1-1"
		attachedEmitterName "stuff"
		attachedEmitterName "(copy) stuff-1"
		attachedEmitterName "lightning"
		attachedEmitterName "lightning2"
		attachedEmitterName "lightning3"
		attachedEmitterName "lightning4"
		WidthInflateRate 0.200000
		HeightInflateRate 2000.000000
	AffectorType "LinearInflate"
	AffectorContents
		Name "(copy) (new) LinearInflate-1-1"
		Enabled TRUE
		StartTime 0.000000
		HasInfiniteLifeTime TRUE
		TotalLifeTime 0.000000
		UseYoungParticleAffectThreshold FALSE
		YoungParticleAffectThreshold 0.000000
		UseOldParticleAffectThreshold FALSE
		OldParticleAffectThreshold 0.000000
		AffectAttachedParticles TRUE
		numAttachedEmitters 1
		attachedEmitterName "(copy) (copy) lines-1-1"
		WidthInflateRate 1.000000
		HeightInflateRate 1000.000000
	AffectorType "Fade"
	AffectorContents
		Name "(new) Fade-1"
		Enabled TRUE
		StartTime 0.000000
		HasInfiniteLifeTime TRUE
		TotalLifeTime 0.000000
		UseYoungParticleAffectThreshold FALSE
		YoungParticleAffectThreshold 0.000000
		UseOldParticleAffectThreshold FALSE
		OldParticleAffectThreshold 0.000000
		AffectAttachedParticles TRUE
		numAttachedEmitters 3
		attachedEmitterName "stuff"
		attachedEmitterName "(copy) stuff-1"
		attachedEmitterName "(copy) stuff-2"
		DoFadeOut TRUE
		FadeOutTime 1.000000
		DoFadeIn TRUE
		FadeInTime 0.500000
	AffectorType "LinearInflate"
	AffectorContents
		Name "(new) LinearInflate-5"
		Enabled TRUE
		StartTime 0.000000
		HasInfiniteLifeTime TRUE
		TotalLifeTime 0.000000
		UseYoungParticleAffectThreshold FALSE
		YoungParticleAffectThreshold 0.000000
		UseOldParticleAffectThreshold FALSE
		OldParticleAffectThreshold 0.000000
		AffectAttachedParticles TRUE
		numAttachedEmitters 1
		attachedEmitterName "tip2"
		WidthInflateRate 0.000000
		HeightInflateRate 4000.000000
	AffectorType "Fade"
	AffectorContents
		Name "(new) Fade-3"
		Enabled TRUE
		StartTime 0.000000
		HasInfiniteLifeTime TRUE
		TotalLifeTime 0.000000
		UseYoungParticleAffectThreshold FALSE
		YoungParticleAffectThreshold 0.000000
		UseOldParticleAffectThreshold FALSE
		OldParticleAffectThreshold 0.000000
		AffectAttachedParticles TRUE
		numAttachedEmitters 4
		attachedEmitterName "tip"
		attachedEmitterName "tip2"
		attachedEmitterName "tip3"
		attachedEmitterName "tip4"
		DoFadeOut TRUE
		FadeOutTime 0.500000
		DoFadeIn TRUE
		FadeInTime 0.200000
	AffectorType "Fade"
	AffectorContents
		Name "(new) Fade-4"
		Enabled TRUE
		StartTime 0.000000
		HasInfiniteLifeTime TRUE
		TotalLifeTime 0.000000
		UseYoungParticleAffectThreshold FALSE
		YoungParticleAffectThreshold 0.000000
		UseOldParticleAffectThreshold FALSE
		OldParticleAffectThreshold 0.000000
		AffectAttachedParticles TRUE
		numAttachedEmitters 1
		attachedEmitterName "fontlightning"
		DoFadeOut TRUE
		FadeOutTime 0.200000
		DoFadeIn TRUE
		FadeInTime 0.400000
	AffectorType "Fade"
	AffectorContents
		Name "(new) Fade-5"
		Enabled TRUE
		StartTime 0.000000
		HasInfiniteLifeTime TRUE
		TotalLifeTime 0.000000
		UseYoungParticleAffectThreshold FALSE
		YoungParticleAffectThreshold 0.000000
		UseOldParticleAffectThreshold FALSE
		OldParticleAffectThreshold 0.000000
		AffectAttachedParticles TRUE
		numAttachedEmitters 4
		attachedEmitterName "lightning"
		attachedEmitterName "lightning2"
		attachedEmitterName "lightning3"
		attachedEmitterName "lightning4"
		DoFadeOut TRUE
		FadeOutTime 1.000000
		DoFadeIn TRUE
		FadeInTime 1.000000
	AffectorType "Fade"
	AffectorContents
		Name "(new) Fade-6"
		Enabled TRUE
		StartTime 0.000000
		HasInfiniteLifeTime TRUE
		TotalLifeTime 0.000000
		UseYoungParticleAffectThreshold FALSE
		YoungParticleAffectThreshold 0.000000
		UseOldParticleAffectThreshold FALSE
		OldParticleAffectThreshold 0.000000
		AffectAttachedParticles TRUE
		numAttachedEmitters 1
		attachedEmitterName "(copy) (copy) lines-1-1"
		DoFadeOut TRUE
		FadeOutTime 1.000000
		DoFadeIn TRUE
		FadeInTime 2.000000
	AffectorType "LinearInflate"
	AffectorContents
		Name "(copy) (new) LinearInflate-5-1"
		Enabled TRUE
		StartTime 0.000000
		HasInfiniteLifeTime TRUE
		TotalLifeTime 0.000000
		UseYoungParticleAffectThreshold FALSE
		YoungParticleAffectThreshold 0.000000
		UseOldParticleAffectThreshold FALSE
		OldParticleAffectThreshold 0.000000
		AffectAttachedParticles TRUE
		numAttachedEmitters 3
		attachedEmitterName "tip3"
		attachedEmitterName "tip"
		attachedEmitterName "tip4"
		WidthInflateRate 0.000000
		HeightInflateRate 2500.000000
	length 0.000000
