﻿TXT
ParticleSimulation
	HasInfiniteLifeTime TRUE
	TotalLifeTime 15.000000
	NumEmitters 16
	EmitterType "Ring"
	EmitterContents
		Name "ring"
		Enabled TRUE
		EmitRate 65.000000
		HasInfiniteEmitCount TRUE
		MaxEmitCount 1
		hasEmitIntervals FALSE
		emitIntervalRunDuration 0.000000
		emitIntervalWaitDuration 0.000000
		ParticleLifeTime 2.200000
		ParticleMinStartLinearSpeed 1.000000
		ParticleMaxStartLinearSpeed 1.000000
		ParticleMinStartAngularSpeed 0.000000
		ParticleMaxStartAngularSpeed 0.000000
		ParticleMinStartRotation 0.000000
		ParticleMaxStartRotation 6.283185
		ParticleStartMass 1.000000
		ParticleStartColor ffffc080
		ParticleWidth 50.000000
		ParticleHeight 50.000000
		MeshName ""
		Position [ 0.000000 0.000000 175.000000 ]
		Orientation
			 [ 1.000000 0.000000 0.000000 ]
			 [ 0.000000 1.000000 0.000000 ]
			 [ 0.000000 0.000000 1.000000 ]
		RotateAboutForward 0.000000
		RotateAboutUp 0.000000
		RotateAboutCross 0.000000
		StartTime 0.550000
		HasInfiniteLifeTime TRUE
		TotalLifeTime 10.000000
		BillboardAnchor 0
		ParticleFacing 0
		PipelineEffectID "Particle_Additive.fx"
		AreParticlesAttached TRUE
		numTextures 2
		textureName "sparkles.tga"
		textureName ""
		textureAnimationName ""
		textureAnimationSpawnType "RandomFrames"
		textureAnimationOnParticleFPS 0.000000
		ParticlesRotate TRUE
		MeshParticleRotationAxisType 0
		MeshParticleRotationAxis [ 0.000000 0.100000 0.000000 ]
		RotationDirectionType 2
		RingRadiusXMin 100.000000
		RingRadiusXMax 100.000000
		RingRadiusYMin 100.000000
		RingRadiusYMax 100.000000
		ParticleMaxStartSpeedTangential 0.000000
		ParticleMaxStartSpeedRingNormal 0.000000
		ScaleStartSpeedsByRadius FALSE
		SpawnAngleStart 0.000000
		SpawnAngleStop 6.283185
		minSpawnHeight 0.000000
		maxSpawnHeight 0.000000
		spawnDirectionIsParallelToPlane TRUE
		isSpawnAngleRandom TRUE
		nonRandomSpawnLoopEmittedParticleCount 0
	EmitterType "Point"
	EmitterContents
		Name "bg lightning"
		Enabled TRUE
		EmitRate 10.000000
		HasInfiniteEmitCount TRUE
		MaxEmitCount 0
		hasEmitIntervals FALSE
		emitIntervalRunDuration 0.000000
		emitIntervalWaitDuration 0.000000
		ParticleLifeTime 0.500000
		ParticleMinStartLinearSpeed 0.000000
		ParticleMaxStartLinearSpeed 0.000000
		ParticleMinStartAngularSpeed 0.000000
		ParticleMaxStartAngularSpeed 0.000000
		ParticleMinStartRotation 0.000000
		ParticleMaxStartRotation 6.283185
		ParticleStartMass 1.000000
		ParticleStartColor ffc0c0ff
		ParticleWidth 62.500000
		ParticleHeight 325.000000
		MeshName ""
		Position [ 0.000000 0.000000 175.000000 ]
		Orientation
			 [ 0.000000 1.000000 0.000000 ]
			 [ 1.000000 0.000000 0.000000 ]
			 [ 0.000000 0.000000 1.000000 ]
		RotateAboutForward 0.000000
		RotateAboutUp 0.000000
		RotateAboutCross 0.000000
		StartTime 1.100000
		HasInfiniteLifeTime TRUE
		TotalLifeTime 9.000000
		BillboardAnchor 0
		ParticleFacing 2
		PipelineEffectID "Particle_Additive.fx"
		AreParticlesAttached TRUE
		numTextures 2
		textureName "Kay_lightningsphere.tga"
		textureName ""
		textureAnimationName ""
		textureAnimationSpawnType "RandomFrames"
		textureAnimationOnParticleFPS 0.000000
		ParticlesRotate TRUE
		MeshParticleRotationAxisType 0
		MeshParticleRotationAxis [ 0.000000 0.100000 0.000000 ]
		RotationDirectionType 2
		AngleVariance 0.000000
	EmitterType "Point"
	EmitterContents
		Name "Lightning"
		Enabled TRUE
		EmitRate 50.000000
		HasInfiniteEmitCount TRUE
		MaxEmitCount 0
		hasEmitIntervals FALSE
		emitIntervalRunDuration 0.000000
		emitIntervalWaitDuration 0.000000
		ParticleLifeTime 0.500000
		ParticleMinStartLinearSpeed 0.000000
		ParticleMaxStartLinearSpeed 0.000000
		ParticleMinStartAngularSpeed 0.000000
		ParticleMaxStartAngularSpeed 0.000000
		ParticleMinStartRotation 0.000000
		ParticleMaxStartRotation 6.283185
		ParticleStartMass 1.000000
		ParticleStartColor ffc0c0ff
		ParticleWidth 0.000000
		ParticleHeight 0.000000
		MeshName ""
		Position [ 0.000000 0.000000 175.000000 ]
		Orientation
			 [ 1.000000 0.000000 0.000000 ]
			 [ 0.000000 -1.000000 -0.000000 ]
			 [ 0.000000 0.000000 -1.000000 ]
		RotateAboutForward 180.000000
		RotateAboutUp 0.000000
		RotateAboutCross 0.000000
		StartTime 0.500000
		HasInfiniteLifeTime TRUE
		TotalLifeTime 0.000000
		BillboardAnchor 0
		ParticleFacing 2
		PipelineEffectID "Particle_Additive.fx"
		AreParticlesAttached TRUE
		numTextures 2
		textureName "firecraigelectrical.dds"
		textureName ""
		textureAnimationName ""
		textureAnimationSpawnType "RandomFrames"
		textureAnimationOnParticleFPS 0.000000
		ParticlesRotate TRUE
		MeshParticleRotationAxisType 0
		MeshParticleRotationAxis [ 0.000000 0.100000 0.000000 ]
		RotationDirectionType 2
		AngleVariance 0.000000
	EmitterType "Point"
	EmitterContents
		Name "(copy) Lightning-1"
		Enabled TRUE
		EmitRate 30.000000
		HasInfiniteEmitCount TRUE
		MaxEmitCount 0
		hasEmitIntervals FALSE
		emitIntervalRunDuration 0.000000
		emitIntervalWaitDuration 0.000000
		ParticleLifeTime 0.500000
		ParticleMinStartLinearSpeed 0.000000
		ParticleMaxStartLinearSpeed 0.000000
		ParticleMinStartAngularSpeed 0.000000
		ParticleMaxStartAngularSpeed 0.000000
		ParticleMinStartRotation 0.000000
		ParticleMaxStartRotation 6.283185
		ParticleStartMass 1.000000
		ParticleStartColor ffff0000
		ParticleWidth 175.000000
		ParticleHeight 80.000000
		MeshName ""
		Position [ 0.000000 0.000000 175.000000 ]
		Orientation
			 [ 1.000000 0.000000 0.000000 ]
			 [ 0.000000 -1.000000 -0.000000 ]
			 [ 0.000000 0.000000 -1.000000 ]
		RotateAboutForward 180.000000
		RotateAboutUp 0.000000
		RotateAboutCross 0.000000
		StartTime 0.900000
		HasInfiniteLifeTime TRUE
		TotalLifeTime 0.000000
		BillboardAnchor 0
		ParticleFacing 2
		PipelineEffectID "Particle_Additive.fx"
		AreParticlesAttached TRUE
		numTextures 2
		textureName "firecraigelectrical.dds"
		textureName ""
		textureAnimationName ""
		textureAnimationSpawnType "RandomFrames"
		textureAnimationOnParticleFPS 0.000000
		ParticlesRotate TRUE
		MeshParticleRotationAxisType 0
		MeshParticleRotationAxis [ 0.000000 0.100000 0.000000 ]
		RotationDirectionType 2
		AngleVariance 0.000000
	EmitterType "Point"
	EmitterContents
		Name "rim"
		Enabled TRUE
		EmitRate 30.000000
		HasInfiniteEmitCount FALSE
		MaxEmitCount 3
		hasEmitIntervals FALSE
		emitIntervalRunDuration 0.000000
		emitIntervalWaitDuration 0.000000
		ParticleLifeTime 0.400000
		ParticleMinStartLinearSpeed 0.000000
		ParticleMaxStartLinearSpeed 0.000000
		ParticleMinStartAngularSpeed 0.000000
		ParticleMaxStartAngularSpeed 0.174533
		ParticleMinStartRotation 0.000000
		ParticleMaxStartRotation 6.283185
		ParticleStartMass 1.000000
		ParticleStartColor ffff8000
		ParticleWidth 0.000000
		ParticleHeight 0.000000
		MeshName ""
		Position [ 0.000000 0.000000 175.000000 ]
		Orientation
			 [ 0.000000 1.000000 0.000000 ]
			 [ 1.000000 0.000000 0.000000 ]
			 [ 0.000000 0.000000 1.000000 ]
		RotateAboutForward 0.000000
		RotateAboutUp 0.000000
		RotateAboutCross 0.000000
		StartTime 0.700000
		HasInfiniteLifeTime TRUE
		TotalLifeTime 9.000000
		BillboardAnchor 0
		ParticleFacing 2
		PipelineEffectID "Particle_Additive.fx"
		AreParticlesAttached TRUE
		numTextures 2
		textureName "Kay-ionshockwave.tga"
		textureName ""
		textureAnimationName ""
		textureAnimationSpawnType "RandomFrames"
		textureAnimationOnParticleFPS 0.000000
		ParticlesRotate TRUE
		MeshParticleRotationAxisType 0
		MeshParticleRotationAxis [ 0.000000 0.100000 0.000000 ]
		RotationDirectionType 0
		AngleVariance 0.000000
	EmitterType "Point"
	EmitterContents
		Name "(copy) blast-1"
		Enabled FALSE
		EmitRate 5.000000
		HasInfiniteEmitCount FALSE
		MaxEmitCount 1
		hasEmitIntervals FALSE
		emitIntervalRunDuration 0.000000
		emitIntervalWaitDuration 0.000000
		ParticleLifeTime 1.200000
		ParticleMinStartLinearSpeed 0.000000
		ParticleMaxStartLinearSpeed 0.000000
		ParticleMinStartAngularSpeed 0.000000
		ParticleMaxStartAngularSpeed 0.174533
		ParticleMinStartRotation 0.000000
		ParticleMaxStartRotation 6.283185
		ParticleStartMass 1.000000
		ParticleStartColor ffff0000
		ParticleWidth 25.000000
		ParticleHeight 75.000000
		MeshName ""
		Position [ 0.000000 0.000000 175.000000 ]
		Orientation
			 [ 0.000000 1.000000 0.000000 ]
			 [ 1.000000 0.000000 0.000000 ]
			 [ 0.000000 0.000000 1.000000 ]
		RotateAboutForward 0.000000
		RotateAboutUp 0.000000
		RotateAboutCross 0.000000
		StartTime 0.800000
		HasInfiniteLifeTime TRUE
		TotalLifeTime 9.000000
		BillboardAnchor 0
		ParticleFacing 2
		PipelineEffectID "Particle_Additive.fx"
		AreParticlesAttached TRUE
		numTextures 2
		textureName "Kay-smoothring.tga"
		textureName ""
		textureAnimationName ""
		textureAnimationSpawnType "RandomFrames"
		textureAnimationOnParticleFPS 0.000000
		ParticlesRotate TRUE
		MeshParticleRotationAxisType 0
		MeshParticleRotationAxis [ 0.000000 0.100000 0.000000 ]
		RotationDirectionType 0
		AngleVariance 0.000000
	EmitterType "Point"
	EmitterContents
		Name "core rift"
		Enabled TRUE
		EmitRate 5.000000
		HasInfiniteEmitCount FALSE
		MaxEmitCount 1
		hasEmitIntervals FALSE
		emitIntervalRunDuration 0.000000
		emitIntervalWaitDuration 0.000000
		ParticleLifeTime 1.000000
		ParticleMinStartLinearSpeed 0.000000
		ParticleMaxStartLinearSpeed 0.000000
		ParticleMinStartAngularSpeed 0.000000
		ParticleMaxStartAngularSpeed 0.000000
		ParticleMinStartRotation 0.000000
		ParticleMaxStartRotation 0.000000
		ParticleStartMass 1.000000
		ParticleStartColor ffff0000
		ParticleWidth 125.000000
		ParticleHeight 25.000000
		MeshName ""
		Position [ 0.000000 0.000000 175.000000 ]
		Orientation
			 [ 1.000000 0.000000 0.000000 ]
			 [ 0.000000 -1.000000 -0.000000 ]
			 [ 0.000000 0.000000 -1.000000 ]
		RotateAboutForward 180.000000
		RotateAboutUp 0.000000
		RotateAboutCross 0.000000
		StartTime 0.300000
		HasInfiniteLifeTime TRUE
		TotalLifeTime 0.000000
		BillboardAnchor 0
		ParticleFacing 2
		PipelineEffectID "Particle_Additive.fx"
		AreParticlesAttached TRUE
		numTextures 2
		textureName "telekineticpush_bg.dds"
		textureName ""
		textureAnimationName ""
		textureAnimationSpawnType "RandomFrames"
		textureAnimationOnParticleFPS 0.000000
		ParticlesRotate TRUE
		MeshParticleRotationAxisType 0
		MeshParticleRotationAxis [ 0.000000 0.100000 0.000000 ]
		RotationDirectionType 2
		AngleVariance 0.000000
	EmitterType "Point"
	EmitterContents
		Name "satart lghting"
		Enabled TRUE
		EmitRate 20.000000
		HasInfiniteEmitCount TRUE
		MaxEmitCount 0
		hasEmitIntervals FALSE
		emitIntervalRunDuration 0.000000
		emitIntervalWaitDuration 0.000000
		ParticleLifeTime 0.100000
		ParticleMinStartLinearSpeed 0.000000
		ParticleMaxStartLinearSpeed 0.000000
		ParticleMinStartAngularSpeed 0.000000
		ParticleMaxStartAngularSpeed 0.000000
		ParticleMinStartRotation 0.000000
		ParticleMaxStartRotation 6.283185
		ParticleStartMass 1.000000
		ParticleStartColor ffc0c0ff
		ParticleWidth 50.000000
		ParticleHeight 100.000000
		MeshName ""
		Position [ 0.000000 0.000000 175.000000 ]
		Orientation
			 [ 1.000000 0.000000 0.000000 ]
			 [ 0.000000 -1.000000 -0.000000 ]
			 [ 0.000000 0.000000 -1.000000 ]
		RotateAboutForward 180.000000
		RotateAboutUp 0.000000
		RotateAboutCross 0.000000
		StartTime 0.100000
		HasInfiniteLifeTime TRUE
		TotalLifeTime 0.000000
		BillboardAnchor 0
		ParticleFacing 2
		PipelineEffectID "Particle_Additive.fx"
		AreParticlesAttached TRUE
		numTextures 2
		textureName "firecraigelectrical.dds"
		textureName ""
		textureAnimationName ""
		textureAnimationSpawnType "RandomFrames"
		textureAnimationOnParticleFPS 0.000000
		ParticlesRotate TRUE
		MeshParticleRotationAxisType 0
		MeshParticleRotationAxis [ 0.000000 0.100000 0.000000 ]
		RotationDirectionType 2
		AngleVariance 0.000000
	EmitterType "Point"
	EmitterContents
		Name "zap"
		Enabled TRUE
		EmitRate 5.000000
		HasInfiniteEmitCount FALSE
		MaxEmitCount 1
		hasEmitIntervals FALSE
		emitIntervalRunDuration 0.000000
		emitIntervalWaitDuration 0.000000
		ParticleLifeTime 0.900000
		ParticleMinStartLinearSpeed 0.000000
		ParticleMaxStartLinearSpeed 0.000000
		ParticleMinStartAngularSpeed 0.000000
		ParticleMaxStartAngularSpeed 0.000000
		ParticleMinStartRotation 0.000000
		ParticleMaxStartRotation 0.000000
		ParticleStartMass 1.000000
		ParticleStartColor ffffc0c0
		ParticleWidth 37.500000
		ParticleHeight 20.000000
		MeshName ""
		Position [ 0.000000 0.000000 175.000000 ]
		Orientation
			 [ 1.000000 0.000000 0.000000 ]
			 [ 0.000000 -1.000000 -0.000000 ]
			 [ 0.000000 0.000000 -1.000000 ]
		RotateAboutForward 180.000000
		RotateAboutUp 0.000000
		RotateAboutCross 0.000000
		StartTime 0.000000
		HasInfiniteLifeTime TRUE
		TotalLifeTime 0.000000
		BillboardAnchor 0
		ParticleFacing 2
		PipelineEffectID "Particle_Additive.fx"
		AreParticlesAttached TRUE
		numTextures 2
		textureName "zap.tga"
		textureName ""
		textureAnimationName ""
		textureAnimationSpawnType "RandomFrames"
		textureAnimationOnParticleFPS 0.000000
		ParticlesRotate TRUE
		MeshParticleRotationAxisType 0
		MeshParticleRotationAxis [ 0.000000 0.100000 0.000000 ]
		RotationDirectionType 2
		AngleVariance 0.000000
	EmitterType "Point"
	EmitterContents
		Name "blast"
		Enabled TRUE
		EmitRate 4.000000
		HasInfiniteEmitCount TRUE
		MaxEmitCount 0
		hasEmitIntervals FALSE
		emitIntervalRunDuration 0.000000
		emitIntervalWaitDuration 0.000000
		ParticleLifeTime 2.000000
		ParticleMinStartLinearSpeed 0.000000
		ParticleMaxStartLinearSpeed 0.000000
		ParticleMinStartAngularSpeed 0.000000
		ParticleMaxStartAngularSpeed 0.000000
		ParticleMinStartRotation 0.000000
		ParticleMaxStartRotation 6.283185
		ParticleStartMass 1.000000
		ParticleStartColor ffff0000
		ParticleWidth 0.000000
		ParticleHeight 0.000000
		MeshName ""
		Position [ 0.000000 0.000000 175.000000 ]
		Orientation
			 [ 0.000000 1.000000 0.000000 ]
			 [ 1.000000 0.000000 0.000000 ]
			 [ 0.000000 0.000000 1.000000 ]
		RotateAboutForward 0.000000
		RotateAboutUp 0.000000
		RotateAboutCross 0.000000
		StartTime 0.500000
		HasInfiniteLifeTime TRUE
		TotalLifeTime 9.000000
		BillboardAnchor 0
		ParticleFacing 2
		PipelineEffectID "Particle_Additive.fx"
		AreParticlesAttached TRUE
		numTextures 2
		textureName "phasegate.tga"
		textureName ""
		textureAnimationName ""
		textureAnimationSpawnType "RandomFrames"
		textureAnimationOnParticleFPS 0.000000
		ParticlesRotate TRUE
		MeshParticleRotationAxisType 0
		MeshParticleRotationAxis [ 0.000000 0.100000 0.000000 ]
		RotationDirectionType 0
		AngleVariance 0.000000
	EmitterType "Point"
	EmitterContents
		Name "black bg lightning-1"
		Enabled TRUE
		EmitRate 10.000000
		HasInfiniteEmitCount TRUE
		MaxEmitCount 0
		hasEmitIntervals FALSE
		emitIntervalRunDuration 0.000000
		emitIntervalWaitDuration 0.000000
		ParticleLifeTime 0.500000
		ParticleMinStartLinearSpeed 0.000000
		ParticleMaxStartLinearSpeed 0.000000
		ParticleMinStartAngularSpeed 0.000000
		ParticleMaxStartAngularSpeed 0.000000
		ParticleMinStartRotation 0.000000
		ParticleMaxStartRotation 6.283185
		ParticleStartMass 1.000000
		ParticleStartColor ffc0c0ff
		ParticleWidth 62.500000
		ParticleHeight 325.000000
		MeshName ""
		Position [ 0.000000 0.000000 175.000000 ]
		Orientation
			 [ 1.000000 0.000000 0.000000 ]
			 [ 0.000000 1.000000 0.000000 ]
			 [ 0.000000 0.000000 1.000000 ]
		RotateAboutForward 0.000000
		RotateAboutUp 0.000000
		RotateAboutCross 0.000000
		StartTime 1.100000
		HasInfiniteLifeTime TRUE
		TotalLifeTime 9.000000
		BillboardAnchor 0
		ParticleFacing 2
		PipelineEffectID "Particle_Additive.fx"
		AreParticlesAttached TRUE
		numTextures 2
		textureName "Kay_lightningsphere.tga"
		textureName ""
		textureAnimationName ""
		textureAnimationSpawnType "RandomFrames"
		textureAnimationOnParticleFPS 0.000000
		ParticlesRotate TRUE
		MeshParticleRotationAxisType 0
		MeshParticleRotationAxis [ 0.000000 0.100000 0.000000 ]
		RotationDirectionType 2
		AngleVariance 0.000000
	EmitterType "Point"
	EmitterContents
		Name "back lghtning"
		Enabled TRUE
		EmitRate 20.000000
		HasInfiniteEmitCount TRUE
		MaxEmitCount 0
		hasEmitIntervals FALSE
		emitIntervalRunDuration 0.000000
		emitIntervalWaitDuration 0.000000
		ParticleLifeTime 0.500000
		ParticleMinStartLinearSpeed 0.000000
		ParticleMaxStartLinearSpeed 0.000000
		ParticleMinStartAngularSpeed 0.000000
		ParticleMaxStartAngularSpeed 0.000000
		ParticleMinStartRotation 0.000000
		ParticleMaxStartRotation 6.283185
		ParticleStartMass 1.000000
		ParticleStartColor ffc0c0ff
		ParticleWidth 0.000000
		ParticleHeight 0.000000
		MeshName ""
		Position [ 0.000000 0.000000 175.000000 ]
		Orientation
			 [ 1.000000 0.000000 0.000000 ]
			 [ 0.000000 1.000000 0.000000 ]
			 [ 0.000000 0.000000 1.000000 ]
		RotateAboutForward 0.000000
		RotateAboutUp 0.000000
		RotateAboutCross 0.000000
		StartTime 0.500000
		HasInfiniteLifeTime TRUE
		TotalLifeTime 0.000000
		BillboardAnchor 0
		ParticleFacing 2
		PipelineEffectID "Particle_Additive.fx"
		AreParticlesAttached TRUE
		numTextures 2
		textureName "firecraigelectrical.dds"
		textureName ""
		textureAnimationName ""
		textureAnimationSpawnType "RandomFrames"
		textureAnimationOnParticleFPS 0.000000
		ParticlesRotate TRUE
		MeshParticleRotationAxisType 0
		MeshParticleRotationAxis [ 0.000000 0.100000 0.000000 ]
		RotationDirectionType 2
		AngleVariance 0.000000
	EmitterType "Point"
	EmitterContents
		Name "Back Copy Lightning-1-1"
		Enabled TRUE
		EmitRate 40.000000
		HasInfiniteEmitCount TRUE
		MaxEmitCount 0
		hasEmitIntervals FALSE
		emitIntervalRunDuration 0.000000
		emitIntervalWaitDuration 0.000000
		ParticleLifeTime 0.500000
		ParticleMinStartLinearSpeed 0.000000
		ParticleMaxStartLinearSpeed 0.000000
		ParticleMinStartAngularSpeed 0.000000
		ParticleMaxStartAngularSpeed 0.000000
		ParticleMinStartRotation 0.000000
		ParticleMaxStartRotation 6.283185
		ParticleStartMass 1.000000
		ParticleStartColor ffff0000
		ParticleWidth 175.000000
		ParticleHeight 50.000000
		MeshName ""
		Position [ 0.000000 0.000000 175.000000 ]
		Orientation
			 [ 1.000000 0.000000 0.000000 ]
			 [ 0.000000 1.000000 0.000000 ]
			 [ 0.000000 0.000000 1.000000 ]
		RotateAboutForward 0.000000
		RotateAboutUp 0.000000
		RotateAboutCross 0.000000
		StartTime 0.900000
		HasInfiniteLifeTime TRUE
		TotalLifeTime 0.000000
		BillboardAnchor 0
		ParticleFacing 2
		PipelineEffectID "Particle_Additive.fx"
		AreParticlesAttached TRUE
		numTextures 2
		textureName "firecraigelectrical.dds"
		textureName ""
		textureAnimationName ""
		textureAnimationSpawnType "RandomFrames"
		textureAnimationOnParticleFPS 0.000000
		ParticlesRotate TRUE
		MeshParticleRotationAxisType 0
		MeshParticleRotationAxis [ 0.000000 0.100000 0.000000 ]
		RotationDirectionType 2
		AngleVariance 0.000000
	EmitterType "Point"
	EmitterContents
		Name "back blast"
		Enabled TRUE
		EmitRate 5.000000
		HasInfiniteEmitCount TRUE
		MaxEmitCount 0
		hasEmitIntervals FALSE
		emitIntervalRunDuration 0.000000
		emitIntervalWaitDuration 0.000000
		ParticleLifeTime 2.000000
		ParticleMinStartLinearSpeed 0.000000
		ParticleMaxStartLinearSpeed 0.000000
		ParticleMinStartAngularSpeed 0.000000
		ParticleMaxStartAngularSpeed 0.000000
		ParticleMinStartRotation 0.000000
		ParticleMaxStartRotation 6.283185
		ParticleStartMass 1.000000
		ParticleStartColor ffff0000
		ParticleWidth 0.000000
		ParticleHeight 0.000000
		MeshName ""
		Position [ 0.000000 0.000000 175.000000 ]
		Orientation
			 [ 1.000000 0.000000 0.000000 ]
			 [ 0.000000 1.000000 0.000000 ]
			 [ 0.000000 0.000000 1.000000 ]
		RotateAboutForward 0.000000
		RotateAboutUp 0.000000
		RotateAboutCross 0.000000
		StartTime 0.500000
		HasInfiniteLifeTime TRUE
		TotalLifeTime 9.000000
		BillboardAnchor 0
		ParticleFacing 2
		PipelineEffectID "Particle_Additive.fx"
		AreParticlesAttached TRUE
		numTextures 2
		textureName "phasegate.tga"
		textureName ""
		textureAnimationName ""
		textureAnimationSpawnType "RandomFrames"
		textureAnimationOnParticleFPS 0.000000
		ParticlesRotate TRUE
		MeshParticleRotationAxisType 0
		MeshParticleRotationAxis [ 0.000000 0.100000 0.000000 ]
		RotationDirectionType 0
		AngleVariance 0.000000
	EmitterType "Point"
	EmitterContents
		Name "(copy) satart lghting-1"
		Enabled TRUE
		EmitRate 12.000000
		HasInfiniteEmitCount TRUE
		MaxEmitCount 0
		hasEmitIntervals FALSE
		emitIntervalRunDuration 0.000000
		emitIntervalWaitDuration 0.000000
		ParticleLifeTime 0.100000
		ParticleMinStartLinearSpeed 0.000000
		ParticleMaxStartLinearSpeed 0.000000
		ParticleMinStartAngularSpeed 0.000000
		ParticleMaxStartAngularSpeed 0.000000
		ParticleMinStartRotation 0.000000
		ParticleMaxStartRotation 6.283185
		ParticleStartMass 1.000000
		ParticleStartColor ffff0000
		ParticleWidth 45.000000
		ParticleHeight 87.500000
		MeshName ""
		Position [ 0.000000 0.000000 175.000000 ]
		Orientation
			 [ 1.000000 0.000000 0.000000 ]
			 [ 0.000000 -1.000000 -0.000000 ]
			 [ 0.000000 0.000000 -1.000000 ]
		RotateAboutForward 180.000000
		RotateAboutUp 0.000000
		RotateAboutCross 0.000000
		StartTime 0.200000
		HasInfiniteLifeTime TRUE
		TotalLifeTime 0.000000
		BillboardAnchor 0
		ParticleFacing 2
		PipelineEffectID "Particle_Additive.fx"
		AreParticlesAttached TRUE
		numTextures 2
		textureName "Kay_lightningsphere2.tga"
		textureName ""
		textureAnimationName ""
		textureAnimationSpawnType "RandomFrames"
		textureAnimationOnParticleFPS 0.000000
		ParticlesRotate TRUE
		MeshParticleRotationAxisType 0
		MeshParticleRotationAxis [ 0.000000 0.100000 0.000000 ]
		RotationDirectionType 2
		AngleVariance 0.000000
	EmitterType "Point"
	EmitterContents
		Name "(copy) (copy) satart lghting-1-1"
		Enabled TRUE
		EmitRate 12.000000
		HasInfiniteEmitCount TRUE
		MaxEmitCount 0
		hasEmitIntervals FALSE
		emitIntervalRunDuration 0.000000
		emitIntervalWaitDuration 0.000000
		ParticleLifeTime 0.100000
		ParticleMinStartLinearSpeed 0.000000
		ParticleMaxStartLinearSpeed 0.000000
		ParticleMinStartAngularSpeed 0.000000
		ParticleMaxStartAngularSpeed 0.000000
		ParticleMinStartRotation 0.000000
		ParticleMaxStartRotation 6.283185
		ParticleStartMass 1.000000
		ParticleStartColor ffff0000
		ParticleWidth 50.000000
		ParticleHeight 75.000000
		MeshName ""
		Position [ 0.000000 0.000000 175.000000 ]
		Orientation
			 [ 1.000000 0.000000 0.000000 ]
			 [ 0.000000 -1.000000 -0.000000 ]
			 [ 0.000000 0.000000 -1.000000 ]
		RotateAboutForward 180.000000
		RotateAboutUp 0.000000
		RotateAboutCross 0.000000
		StartTime 0.200000
		HasInfiniteLifeTime TRUE
		TotalLifeTime 0.000000
		BillboardAnchor 0
		ParticleFacing 2
		PipelineEffectID "Particle_Additive.fx"
		AreParticlesAttached TRUE
		numTextures 2
		textureName "Kay_lightningsphere.tga"
		textureName ""
		textureAnimationName ""
		textureAnimationSpawnType "RandomFrames"
		textureAnimationOnParticleFPS 0.000000
		ParticlesRotate TRUE
		MeshParticleRotationAxisType 0
		MeshParticleRotationAxis [ 0.000000 0.100000 0.000000 ]
		RotationDirectionType 2
		AngleVariance 0.000000
	NumAffectors 29
	AffectorType "Fade"
	AffectorContents
		Name "Fade"
		Enabled TRUE
		StartTime 0.000000
		HasInfiniteLifeTime TRUE
		TotalLifeTime 0.000000
		UseYoungParticleAffectThreshold FALSE
		YoungParticleAffectThreshold 0.000000
		UseOldParticleAffectThreshold FALSE
		OldParticleAffectThreshold 0.000000
		AffectAttachedParticles TRUE
		numAttachedEmitters 3
		attachedEmitterName "ring"
		attachedEmitterName "bg lightning"
		attachedEmitterName "black bg lightning-1"
		DoFadeOut TRUE
		FadeOutTime 1.000000
		DoFadeIn TRUE
		FadeInTime 1.000000
	AffectorType "LinearForceToPoint"
	AffectorContents
		Name "New Affector"
		Enabled TRUE
		StartTime 0.000000
		HasInfiniteLifeTime TRUE
		TotalLifeTime 0.000000
		UseYoungParticleAffectThreshold FALSE
		YoungParticleAffectThreshold 0.000000
		UseOldParticleAffectThreshold FALSE
		OldParticleAffectThreshold 0.000000
		AffectAttachedParticles TRUE
		numAttachedEmitters 1
		attachedEmitterName "ring"
		MinForce -8000.000000
		MaxForce -8000.000000
		Point [ 0.000000 0.000000 700.000000 ]
	AffectorType "KillParticlesNearPoint"
	AffectorContents
		Name "New Affector"
		Enabled TRUE
		StartTime 0.000000
		HasInfiniteLifeTime TRUE
		TotalLifeTime 0.000000
		UseYoungParticleAffectThreshold FALSE
		YoungParticleAffectThreshold 0.000000
		UseOldParticleAffectThreshold FALSE
		OldParticleAffectThreshold 0.000000
		AffectAttachedParticles TRUE
		numAttachedEmitters 1
		attachedEmitterName "ring"
		Point [ 0.000000 0.000000 700.000000 ]
		Distance 50.000000
	AffectorType "LinearInflate"
	AffectorContents
		Name "New Affector"
		Enabled TRUE
		StartTime 0.000000
		HasInfiniteLifeTime TRUE
		TotalLifeTime 0.000000
		UseYoungParticleAffectThreshold FALSE
		YoungParticleAffectThreshold 0.000000
		UseOldParticleAffectThreshold FALSE
		OldParticleAffectThreshold 0.000000
		AffectAttachedParticles TRUE
		numAttachedEmitters 3
		attachedEmitterName "ring"
		attachedEmitterName "bg lightning"
		attachedEmitterName "black bg lightning-1"
		WidthInflateRate 15.000000
		HeightInflateRate 15.000000
	AffectorType "LinearInflate"
	AffectorContents
		Name "New Affector"
		Enabled TRUE
		StartTime 0.000000
		HasInfiniteLifeTime TRUE
		TotalLifeTime 0.000000
		UseYoungParticleAffectThreshold FALSE
		YoungParticleAffectThreshold 0.000000
		UseOldParticleAffectThreshold FALSE
		OldParticleAffectThreshold 0.000000
		AffectAttachedParticles TRUE
		numAttachedEmitters 2
		attachedEmitterName "bg lightning"
		attachedEmitterName "black bg lightning-1"
		WidthInflateRate 3000.000000
		HeightInflateRate 4000.000000
	AffectorType "LinearInflate"
	AffectorContents
		Name "lightinginflarte"
		Enabled TRUE
		StartTime 0.000000
		HasInfiniteLifeTime TRUE
		TotalLifeTime 0.000000
		UseYoungParticleAffectThreshold FALSE
		YoungParticleAffectThreshold 0.000000
		UseOldParticleAffectThreshold FALSE
		OldParticleAffectThreshold 0.000000
		AffectAttachedParticles TRUE
		numAttachedEmitters 2
		attachedEmitterName "Lightning"
		attachedEmitterName "back lghtning"
		WidthInflateRate 900.000000
		HeightInflateRate 4000.000000
	AffectorType "LinearInflate"
	AffectorContents
		Name "riftinflate"
		Enabled TRUE
		StartTime 0.000000
		HasInfiniteLifeTime TRUE
		TotalLifeTime 0.000000
		UseYoungParticleAffectThreshold FALSE
		YoungParticleAffectThreshold 0.000000
		UseOldParticleAffectThreshold FALSE
		OldParticleAffectThreshold 0.000000
		AffectAttachedParticles TRUE
		numAttachedEmitters 0
		WidthInflateRate 50.000000
		HeightInflateRate 500.000000
	AffectorType "Fade"
	AffectorContents
		Name "(new) Fade-1"
		Enabled TRUE
		StartTime 0.000000
		HasInfiniteLifeTime TRUE
		TotalLifeTime 0.000000
		UseYoungParticleAffectThreshold FALSE
		YoungParticleAffectThreshold 0.000000
		UseOldParticleAffectThreshold FALSE
		OldParticleAffectThreshold 0.000000
		AffectAttachedParticles TRUE
		numAttachedEmitters 2
		attachedEmitterName "Lightning"
		attachedEmitterName "back lghtning"
		DoFadeOut TRUE
		FadeOutTime 0.200000
		DoFadeIn FALSE
		FadeInTime 1.000000
	AffectorType "LinearInflate"
	AffectorContents
		Name "(copy) riftinflate-1"
		Enabled TRUE
		StartTime 0.000000
		HasInfiniteLifeTime TRUE
		TotalLifeTime 0.000000
		UseYoungParticleAffectThreshold FALSE
		YoungParticleAffectThreshold 0.000000
		UseOldParticleAffectThreshold FALSE
		OldParticleAffectThreshold 0.000000
		AffectAttachedParticles TRUE
		numAttachedEmitters 0
		WidthInflateRate 40.000000
		HeightInflateRate 400.000000
	AffectorType "LinearInflate"
	AffectorContents
		Name "(new) LinearInflate-1"
		Enabled TRUE
		StartTime 0.000000
		HasInfiniteLifeTime TRUE
		TotalLifeTime 0.000000
		UseYoungParticleAffectThreshold FALSE
		YoungParticleAffectThreshold 0.000000
		UseOldParticleAffectThreshold FALSE
		OldParticleAffectThreshold 0.000000
		AffectAttachedParticles TRUE
		numAttachedEmitters 0
		WidthInflateRate 1000.000000
		HeightInflateRate 50.000000
	AffectorType "LinearInflate"
	AffectorContents
		Name "(copy) (new) LinearInflate-1-1"
		Enabled TRUE
		StartTime 0.000000
		HasInfiniteLifeTime TRUE
		TotalLifeTime 0.000000
		UseYoungParticleAffectThreshold FALSE
		YoungParticleAffectThreshold 0.000000
		UseOldParticleAffectThreshold FALSE
		OldParticleAffectThreshold 0.000000
		AffectAttachedParticles TRUE
		numAttachedEmitters 0
		WidthInflateRate 500.000000
		HeightInflateRate 300.000000
	AffectorType "Fade"
	AffectorContents
		Name "(new) Fade-2"
		Enabled TRUE
		StartTime 0.000000
		HasInfiniteLifeTime TRUE
		TotalLifeTime 0.000000
		UseYoungParticleAffectThreshold FALSE
		YoungParticleAffectThreshold 0.000000
		UseOldParticleAffectThreshold FALSE
		OldParticleAffectThreshold 0.000000
		AffectAttachedParticles TRUE
		numAttachedEmitters 0
		DoFadeOut TRUE
		FadeOutTime 0.200000
		DoFadeIn FALSE
		FadeInTime 1.000000
	AffectorType "Fade"
	AffectorContents
		Name "(copy) Fade-1"
		Enabled TRUE
		StartTime 0.000000
		HasInfiniteLifeTime TRUE
		TotalLifeTime 0.000000
		UseYoungParticleAffectThreshold FALSE
		YoungParticleAffectThreshold 0.000000
		UseOldParticleAffectThreshold FALSE
		OldParticleAffectThreshold 0.000000
		AffectAttachedParticles TRUE
		numAttachedEmitters 0
		DoFadeOut FALSE
		FadeOutTime 1.000000
		DoFadeIn TRUE
		FadeInTime 0.300000
	AffectorType "LinearInflate"
	AffectorContents
		Name "(new) LinearInflate-2"
		Enabled TRUE
		StartTime 0.000000
		HasInfiniteLifeTime TRUE
		TotalLifeTime 0.000000
		UseYoungParticleAffectThreshold FALSE
		YoungParticleAffectThreshold 0.000000
		UseOldParticleAffectThreshold FALSE
		OldParticleAffectThreshold 0.000000
		AffectAttachedParticles TRUE
		numAttachedEmitters 2
		attachedEmitterName "(copy) Lightning-1"
		attachedEmitterName "Back Copy Lightning-1-1"
		WidthInflateRate 4000.000000
		HeightInflateRate 500.000000
	AffectorType "SizeOscillator"
	AffectorContents
		Name "(new) SizeOscillator-1"
		Enabled TRUE
		StartTime 0.000000
		HasInfiniteLifeTime TRUE
		TotalLifeTime 0.000000
		UseYoungParticleAffectThreshold FALSE
		YoungParticleAffectThreshold 0.000000
		UseOldParticleAffectThreshold FALSE
		OldParticleAffectThreshold 0.000000
		AffectAttachedParticles TRUE
		numAttachedEmitters 1
		attachedEmitterName "rim"
		TransitionPeriod 0.300000
		BeginSizeX 0.000000
		BeginSizeY 0.000000
		EndSizeX 1000.000000
		EndSizeY 1000.000000
	AffectorType "Fade"
	AffectorContents
		Name "(new) Fade-3"
		Enabled TRUE
		StartTime 0.000000
		HasInfiniteLifeTime TRUE
		TotalLifeTime 0.000000
		UseYoungParticleAffectThreshold FALSE
		YoungParticleAffectThreshold 0.000000
		UseOldParticleAffectThreshold FALSE
		OldParticleAffectThreshold 0.000000
		AffectAttachedParticles TRUE
		numAttachedEmitters 2
		attachedEmitterName "(copy) Lightning-1"
		attachedEmitterName "Back Copy Lightning-1-1"
		DoFadeOut TRUE
		FadeOutTime 0.400000
		DoFadeIn FALSE
		FadeInTime 2.000000
	AffectorType "LinearInflate"
	AffectorContents
		Name "(new) LinearInflate-3"
		Enabled TRUE
		StartTime 0.000000
		HasInfiniteLifeTime TRUE
		TotalLifeTime 0.000000
		UseYoungParticleAffectThreshold FALSE
		YoungParticleAffectThreshold 0.000000
		UseOldParticleAffectThreshold FALSE
		OldParticleAffectThreshold 0.000000
		AffectAttachedParticles TRUE
		numAttachedEmitters 1
		attachedEmitterName "(copy) blast-1"
		WidthInflateRate 1600.000000
		HeightInflateRate 1700.000000
	AffectorType "Fade"
	AffectorContents
		Name "(new) Fade-4"
		Enabled TRUE
		StartTime 0.000000
		HasInfiniteLifeTime TRUE
		TotalLifeTime 0.000000
		UseYoungParticleAffectThreshold FALSE
		YoungParticleAffectThreshold 0.000000
		UseOldParticleAffectThreshold FALSE
		OldParticleAffectThreshold 0.000000
		AffectAttachedParticles TRUE
		numAttachedEmitters 2
		attachedEmitterName "(copy) blast-1"
		attachedEmitterName "back blast"
		DoFadeOut TRUE
		FadeOutTime 2.400000
		DoFadeIn FALSE
		FadeInTime 1.000000
	AffectorType "LinearInflate"
	AffectorContents
		Name "(new) LinearInflate-4"
		Enabled TRUE
		StartTime 0.000000
		HasInfiniteLifeTime TRUE
		TotalLifeTime 0.000000
		UseYoungParticleAffectThreshold FALSE
		YoungParticleAffectThreshold 0.000000
		UseOldParticleAffectThreshold TRUE
		OldParticleAffectThreshold 0.000000
		AffectAttachedParticles TRUE
		numAttachedEmitters 1
		attachedEmitterName "core rift"
		WidthInflateRate 100.000000
		HeightInflateRate 800.000000
	AffectorType "Fade"
	AffectorContents
		Name "(new) Fade-5"
		Enabled TRUE
		StartTime 0.000000
		HasInfiniteLifeTime TRUE
		TotalLifeTime 0.000000
		UseYoungParticleAffectThreshold FALSE
		YoungParticleAffectThreshold 0.000000
		UseOldParticleAffectThreshold FALSE
		OldParticleAffectThreshold 0.000000
		AffectAttachedParticles TRUE
		numAttachedEmitters 1
		attachedEmitterName "core rift"
		DoFadeOut TRUE
		FadeOutTime 0.300000
		DoFadeIn TRUE
		FadeInTime 0.300000
	AffectorType "LinearInflate"
	AffectorContents
		Name "(new) LinearInflate-6"
		Enabled TRUE
		StartTime 0.000000
		HasInfiniteLifeTime TRUE
		TotalLifeTime 0.000000
		UseYoungParticleAffectThreshold FALSE
		YoungParticleAffectThreshold 0.000000
		UseOldParticleAffectThreshold FALSE
		OldParticleAffectThreshold 0.000000
		AffectAttachedParticles TRUE
		numAttachedEmitters 2
		attachedEmitterName "satart lghting"
		attachedEmitterName "(copy) satart lghting-1"
		WidthInflateRate 200.000000
		HeightInflateRate 600.000000
	AffectorType "LinearInflate"
	AffectorContents
		Name "(new) LinearInflate-5"
		Enabled TRUE
		StartTime 0.000000
		HasInfiniteLifeTime TRUE
		TotalLifeTime 0.000000
		UseYoungParticleAffectThreshold FALSE
		YoungParticleAffectThreshold 0.000000
		UseOldParticleAffectThreshold FALSE
		OldParticleAffectThreshold 0.000000
		AffectAttachedParticles TRUE
		numAttachedEmitters 1
		attachedEmitterName "zap"
		WidthInflateRate 700.000000
		HeightInflateRate 1.000000
	AffectorType "Fade"
	AffectorContents
		Name "(new) Fade-6"
		Enabled TRUE
		StartTime 0.000000
		HasInfiniteLifeTime TRUE
		TotalLifeTime 0.000000
		UseYoungParticleAffectThreshold FALSE
		YoungParticleAffectThreshold 0.000000
		UseOldParticleAffectThreshold FALSE
		OldParticleAffectThreshold 0.000000
		AffectAttachedParticles TRUE
		numAttachedEmitters 1
		attachedEmitterName "rim"
		DoFadeOut TRUE
		FadeOutTime 0.500000
		DoFadeIn FALSE
		FadeInTime 1.000000
	AffectorType "LinearInflate"
	AffectorContents
		Name "(new) LinearInflate-7"
		Enabled TRUE
		StartTime 0.000000
		HasInfiniteLifeTime TRUE
		TotalLifeTime 0.000000
		UseYoungParticleAffectThreshold FALSE
		YoungParticleAffectThreshold 0.000000
		UseOldParticleAffectThreshold FALSE
		OldParticleAffectThreshold 0.000000
		AffectAttachedParticles TRUE
		numAttachedEmitters 2
		attachedEmitterName "blast"
		attachedEmitterName "back blast"
		WidthInflateRate 3500.000000
		HeightInflateRate 1500.000000
	AffectorType "Fade"
	AffectorContents
		Name "(new) Fade-7"
		Enabled TRUE
		StartTime 0.000000
		HasInfiniteLifeTime TRUE
		TotalLifeTime 0.000000
		UseYoungParticleAffectThreshold FALSE
		YoungParticleAffectThreshold 0.000000
		UseOldParticleAffectThreshold FALSE
		OldParticleAffectThreshold 0.000000
		AffectAttachedParticles TRUE
		numAttachedEmitters 2
		attachedEmitterName "blast"
		attachedEmitterName "back blast"
		DoFadeOut TRUE
		FadeOutTime 3.000000
		DoFadeIn TRUE
		FadeInTime 2.000000
	AffectorType "Fade"
	AffectorContents
		Name "(new) Fade-8"
		Enabled TRUE
		StartTime 0.000000
		HasInfiniteLifeTime TRUE
		TotalLifeTime 0.000000
		UseYoungParticleAffectThreshold FALSE
		YoungParticleAffectThreshold 0.000000
		UseOldParticleAffectThreshold FALSE
		OldParticleAffectThreshold 0.000000
		AffectAttachedParticles TRUE
		numAttachedEmitters 1
		attachedEmitterName "zap"
		DoFadeOut TRUE
		FadeOutTime 0.500000
		DoFadeIn FALSE
		FadeInTime 1.000000
	AffectorType "Fade"
	AffectorContents
		Name "(new) Fade-9"
		Enabled TRUE
		StartTime 0.000000
		HasInfiniteLifeTime TRUE
		TotalLifeTime 0.000000
		UseYoungParticleAffectThreshold FALSE
		YoungParticleAffectThreshold 0.000000
		UseOldParticleAffectThreshold FALSE
		OldParticleAffectThreshold 0.000000
		AffectAttachedParticles TRUE
		numAttachedEmitters 0
		DoFadeOut TRUE
		FadeOutTime 1.000000
		DoFadeIn TRUE
		FadeInTime 2.000000
	AffectorType "LinearInflate"
	AffectorContents
		Name "(new) LinearInflate-8"
		Enabled TRUE
		StartTime 0.000000
		HasInfiniteLifeTime TRUE
		TotalLifeTime 0.000000
		UseYoungParticleAffectThreshold FALSE
		YoungParticleAffectThreshold 0.000000
		UseOldParticleAffectThreshold FALSE
		OldParticleAffectThreshold 0.000000
		AffectAttachedParticles TRUE
		numAttachedEmitters 0
		WidthInflateRate 1200.000000
		HeightInflateRate 10000.000000
	AffectorType "Fade"
	AffectorContents
		Name "(new) Fade-10"
		Enabled TRUE
		StartTime 0.000000
		HasInfiniteLifeTime TRUE
		TotalLifeTime 0.000000
		UseYoungParticleAffectThreshold FALSE
		YoungParticleAffectThreshold 0.000000
		UseOldParticleAffectThreshold FALSE
		OldParticleAffectThreshold 0.000000
		AffectAttachedParticles TRUE
		numAttachedEmitters 0
		DoFadeOut FALSE
		FadeOutTime 0.100000
		DoFadeIn FALSE
		FadeInTime 1.000000
	length 0.000000
