﻿TXT
ParticleSimulation
	HasInfiniteLifeTime FALSE
	TotalLifeTime 10.000000
	NumEmitters 1
	EmitterType "Point"
	EmitterContents
		Name "CLoud"
		Enabled TRUE
		EmitRate 10.000000
		HasInfiniteEmitCount TRUE
		MaxEmitCount 0
		hasEmitIntervals FALSE
		emitIntervalRunDuration 0.000000
		emitIntervalWaitDuration 0.000000
		ParticleLifeTime 1.600000
		ParticleMinStartLinearSpeed 0.000000
		ParticleMaxStartLinearSpeed 0.000000
		ParticleMinStartAngularSpeed 0.000000
		ParticleMaxStartAngularSpeed 0.000000
		ParticleMinStartRotation 0.000000
		ParticleMaxStartRotation 6.283185
		ParticleStartMass 1.000000
		ParticleStartColor ffffffff
		ParticleWidth 25.000000
		ParticleHeight 25.000000
		MeshName ""
		Position [ 0.000000 0.000000 0.000000 ]
		Orientation
			 [ 1.000000 0.000000 0.000000 ]
			 [ 0.000000 1.000000 0.000000 ]
			 [ 0.000000 0.000000 1.000000 ]
		RotateAboutForward 0.000000
		RotateAboutUp 0.000000
		RotateAboutCross 0.000000
		StartTime 0.000000
		HasInfiniteLifeTime FALSE
		TotalLifeTime 2.800000
		BillboardAnchor 0
		ParticleFacing 0
		PipelineEffectID "Particle_Additive.fx"
		AreParticlesAttached FALSE
		numTextures 2
		textureName "smoke1.tga"
		textureName ""
		textureAnimationName ""
		textureAnimationSpawnType "RandomFrames"
		textureAnimationOnParticleFPS 0.000000
		ParticlesRotate TRUE
		MeshParticleRotationAxisType 0
		MeshParticleRotationAxis [ 0.000000 0.100000 0.000000 ]
		RotationDirectionType 2
		AngleVariance 0.000000
	NumAffectors 2
	AffectorType "Fade"
	AffectorContents
		Name "trail fade"
		Enabled TRUE
		StartTime 0.000000
		HasInfiniteLifeTime TRUE
		TotalLifeTime 0.000000
		UseYoungParticleAffectThreshold FALSE
		YoungParticleAffectThreshold 0.000000
		UseOldParticleAffectThreshold FALSE
		OldParticleAffectThreshold 0.000000
		AffectAttachedParticles TRUE
		numAttachedEmitters 1
		attachedEmitterName "CLoud"
		DoFadeOut TRUE
		FadeOutTime 2.000000
		DoFadeIn FALSE
		FadeInTime 1.000000
	AffectorType "LinearInflate"
	AffectorContents
		Name "sparks2 grow"
		Enabled TRUE
		StartTime 0.000000
		HasInfiniteLifeTime TRUE
		TotalLifeTime 0.000000
		UseYoungParticleAffectThreshold FALSE
		YoungParticleAffectThreshold 0.000000
		UseOldParticleAffectThreshold FALSE
		OldParticleAffectThreshold 0.000000
		AffectAttachedParticles TRUE
		numAttachedEmitters 1
		attachedEmitterName "CLoud"
		WidthInflateRate -12.500000
		HeightInflateRate -12.500000
	length 0.000000
